Suite/Test/Step Name,Browser,Description,Start time,End time,Duration,Status
ServicePackage_Tenant_DID,Chrome 66.0.3359.181,,2018-08-06 16:59:06,2018-08-06 17:05:00,5m - 54.073s,PASSED
,,,,,,
Test Cases/0_Login,Chrome 66.0.3359.181,,2018-08-06 16:59:06,2018-08-06 16:59:32,25.938s,PASSED
openBrowser,Chrome 66.0.3359.181,,2018-08-06 16:59:07,2018-08-06 16:59:10,3.393s,PASSED
navigateToUrl,Chrome 66.0.3359.181,,2018-08-06 16:59:10,2018-08-06 16:59:21,10.544s,PASSED
maximizeWindow,Chrome 66.0.3359.181,,2018-08-06 16:59:21,2018-08-06 16:59:22,1.159s,PASSED
delay,Chrome 66.0.3359.181,,2018-08-06 16:59:22,2018-08-06 16:59:24,2.033s,PASSED
closeWindowIndex,Chrome 66.0.3359.181,,2018-08-06 16:59:24,2018-08-06 16:59:24,0.196s,PASSED
delay,Chrome 66.0.3359.181,,2018-08-06 16:59:24,2018-08-06 16:59:26,2.002s,PASSED
switchToWindowTitle,Chrome 66.0.3359.181,,2018-08-06 16:59:26,2018-08-06 16:59:26,0.106s,PASSED
"Statement - Expectedpage = ""Dashboard""",Chrome 66.0.3359.181,,2018-08-06 16:59:26,2018-08-06 16:59:26,0.002s,PASSED
setText,Chrome 66.0.3359.181,,2018-08-06 16:59:26,2018-08-06 16:59:27,0.325s,PASSED
setText,Chrome 66.0.3359.181,,2018-08-06 16:59:27,2018-08-06 16:59:27,0.448s,PASSED
click,Chrome 66.0.3359.181,,2018-08-06 16:59:27,2018-08-06 16:59:27,0.239s,PASSED
delay,Chrome 66.0.3359.181,,2018-08-06 16:59:27,2018-08-06 16:59:32,5.003s,PASSED
,,,,,,
Test Cases/1_TestCases_ServicePackage,Chrome 66.0.3359.181,,2018-08-06 16:59:32,2018-08-06 17:00:07,34.648s,PASSED
click,Chrome 66.0.3359.181,,2018-08-06 16:59:33,2018-08-06 16:59:37,4.742s,PASSED
click,Chrome 66.0.3359.181,,2018-08-06 16:59:37,2018-08-06 16:59:40,2.710s,PASSED
click,Chrome 66.0.3359.181,,2018-08-06 16:59:40,2018-08-06 16:59:40,0.172s,PASSED
click,Chrome 66.0.3359.181,,2018-08-06 16:59:40,2018-08-06 16:59:43,2.762s,PASSED
click,Chrome 66.0.3359.181,,2018-08-06 16:59:43,2018-08-06 16:59:43,0.366s,PASSED
"Statement - chars = ""abcdefghijklmnopqrstuvwxyz0123456789""",Chrome 66.0.3359.181,,2018-08-06 16:59:43,2018-08-06 16:59:43,0.001s,PASSED
"Statement - ServicePackageName = """"",Chrome 66.0.3359.181,,2018-08-06 16:59:43,2018-08-06 16:59:43,0.001s,PASSED
"Statement - ServicePackageName = Script1532344828195.randomString((AUTOMATION + chars), 5)",Chrome 66.0.3359.181,,2018-08-06 16:59:43,2018-08-06 16:59:43,0.003s,PASSED
Statement - rand = new java.util.Random(),Chrome 66.0.3359.181,,2018-08-06 16:59:43,2018-08-06 16:59:43,0.006s,PASSED
Statement - sb = new java.lang.StringBuilder(),Chrome 66.0.3359.181,,2018-08-06 16:59:43,2018-08-06 16:59:43,0.011s,PASSED
"Statement - For ([i = 0, i < length, (i++)])",Chrome 66.0.3359.181,,2018-08-06 16:59:43,2018-08-06 16:59:43,0.011s,PASSED
Statement - return sb.toString(),Chrome 66.0.3359.181,,2018-08-06 16:59:43,2018-08-06 16:59:43,0.002s,PASSED
Statement - ServicePackage = ServicePackageName,Chrome 66.0.3359.181,,2018-08-06 16:59:43,2018-08-06 16:59:43,0.001s,PASSED
setText,Chrome 66.0.3359.181,,2018-08-06 16:59:43,2018-08-06 16:59:47,3.264s,PASSED
click,Chrome 66.0.3359.181,,2018-08-06 16:59:47,2018-08-06 16:59:47,0.188s,PASSED
click,Chrome 66.0.3359.181,,2018-08-06 16:59:47,2018-08-06 16:59:47,0.315s,PASSED
doubleClick,Chrome 66.0.3359.181,,2018-08-06 16:59:47,2018-08-06 16:59:48,0.327s,PASSED
delay,Chrome 66.0.3359.181,,2018-08-06 16:59:48,2018-08-06 16:59:53,5.001s,PASSED
click,Chrome 66.0.3359.181,,2018-08-06 16:59:53,2018-08-06 16:59:53,0.174s,PASSED
doubleClick,Chrome 66.0.3359.181,,2018-08-06 16:59:53,2018-08-06 16:59:53,0.259s,PASSED
delay,Chrome 66.0.3359.181,,2018-08-06 16:59:53,2018-08-06 16:59:57,4.003s,PASSED
setText,Chrome 66.0.3359.181,,2018-08-06 16:59:57,2018-08-06 16:59:57,0.160s,PASSED
click,Chrome 66.0.3359.181,,2018-08-06 16:59:57,2018-08-06 16:59:57,0.297s,PASSED
doubleClick,Chrome 66.0.3359.181,,2018-08-06 16:59:57,2018-08-06 16:59:58,0.116s,PASSED
delay,Chrome 66.0.3359.181,,2018-08-06 16:59:58,2018-08-06 17:00:00,2.001s,PASSED
setText,Chrome 66.0.3359.181,,2018-08-06 17:00:00,2018-08-06 17:00:00,0.202s,PASSED
click,Chrome 66.0.3359.181,,2018-08-06 17:00:00,2018-08-06 17:00:00,0.244s,PASSED
doubleClick,Chrome 66.0.3359.181,,2018-08-06 17:00:00,2018-08-06 17:00:00,0.116s,PASSED
delay,Chrome 66.0.3359.181,,2018-08-06 17:00:00,2018-08-06 17:00:02,2.001s,PASSED
setText,Chrome 66.0.3359.181,,2018-08-06 17:00:02,2018-08-06 17:00:02,0.360s,PASSED
click,Chrome 66.0.3359.181,,2018-08-06 17:00:02,2018-08-06 17:00:03,0.135s,PASSED
click,Chrome 66.0.3359.181,,2018-08-06 17:00:03,2018-08-06 17:00:06,3.376s,PASSED
setText,Chrome 66.0.3359.181,,2018-08-06 17:00:06,2018-08-06 17:00:06,0.509s,PASSED
click,Chrome 66.0.3359.181,,2018-08-06 17:00:06,2018-08-06 17:00:07,0.261s,PASSED
click,Chrome 66.0.3359.181,,2018-08-06 17:00:07,2018-08-06 17:00:07,0.189s,PASSED
,,,,,,
Test Cases/3_DID_Regular_Number,Chrome 66.0.3359.181,"1) Open Browser Instance. 
2) Enter Given Admin URL in address bar. 
3) Login as Admin
4) Click On DID Inventory In Side Menu Nevigation
5) Click On DID Individual
6) Click On Create Button
7) Select Nuber Type=Regular, Select Type=Number, Enter Number (Number Field Must Be Accepted If Numberic Only), Description= Any text, MRC = Positive Numeric Value
8) Click On search Button And Enter Created DID Number, Number Type= Regular and Click On Search button",2018-08-06 17:00:07,2018-08-06 17:00:30,22.734s,PASSED
"Statement - chars = ""123456789""",Chrome 66.0.3359.181,,2018-08-06 17:00:07,2018-08-06 17:00:07,0.001s,PASSED
"Statement - DIDNumber = """"",Chrome 66.0.3359.181,,2018-08-06 17:00:07,2018-08-06 17:00:07,0.001s,PASSED
"Statement - DIDNumber = Script1532598339424.randomString((12345 + chars), 5)",Chrome 66.0.3359.181,,2018-08-06 17:00:07,2018-08-06 17:00:07,0.011s,PASSED
Statement - rand = new java.util.Random(),Chrome 66.0.3359.181,,2018-08-06 17:00:07,2018-08-06 17:00:07,0.000s,PASSED
Statement - sb = new java.lang.StringBuilder(),Chrome 66.0.3359.181,,2018-08-06 17:00:07,2018-08-06 17:00:07,0.004s,PASSED
"Statement - For ([i = 0, i < length, (i++)])",Chrome 66.0.3359.181,,2018-08-06 17:00:07,2018-08-06 17:00:07,0.015s,PASSED
Statement - return sb.toString(),Chrome 66.0.3359.181,,2018-08-06 17:00:07,2018-08-06 17:00:07,0.001s,PASSED
Statement - DIDNumber = DIDNumber,Chrome 66.0.3359.181,,2018-08-06 17:00:07,2018-08-06 17:00:07,0.000s,PASSED
delay,Chrome 66.0.3359.181,,2018-08-06 17:00:07,2018-08-06 17:00:10,3.001s,PASSED
click,Chrome 66.0.3359.181,,2018-08-06 17:00:10,2018-08-06 17:00:10,0.219s,PASSED
delay,Chrome 66.0.3359.181,,2018-08-06 17:00:10,2018-08-06 17:00:13,3.002s,PASSED
click,Chrome 66.0.3359.181,,2018-08-06 17:00:13,2018-08-06 17:00:19,5.811s,PASSED
click,Chrome 66.0.3359.181,,2018-08-06 17:00:19,2018-08-06 17:00:19,0.182s,PASSED
selectOptionByValue,Chrome 66.0.3359.181,,2018-08-06 17:00:19,2018-08-06 17:00:22,2.807s,PASSED
selectOptionByValue,Chrome 66.0.3359.181,,2018-08-06 17:00:22,2018-08-06 17:00:22,0.108s,PASSED
setText,Chrome 66.0.3359.181,,2018-08-06 17:00:22,2018-08-06 17:00:23,0.585s,PASSED
click,Chrome 66.0.3359.181,,2018-08-06 17:00:23,2018-08-06 17:00:23,0.140s,PASSED
Statement - actual = com.kms.katalon.core.webui.keyword.WebUiBuiltInKeywords.getText(com.kms.katalon.core.testobject.ObjectRepository.findTestObject(Page_Create DID Inventory/div_Number must be an integer.)),Chrome 66.0.3359.181,,2018-08-06 17:00:23,2018-08-06 17:00:24,0.625s,PASSED
"Statement - validation = ""Number must be an integer.""",Chrome 66.0.3359.181,,2018-08-06 17:00:24,2018-08-06 17:00:24,0.001s,PASSED
Statement - If (actual.equals(validation)),Chrome 66.0.3359.181,,2018-08-06 17:00:24,2018-08-06 17:00:24,0.010s,PASSED
setText,Chrome 66.0.3359.181,,2018-08-06 17:00:24,2018-08-06 17:00:24,0.505s,PASSED
setText,Chrome 66.0.3359.181,,2018-08-06 17:00:24,2018-08-06 17:00:24,0.144s,PASSED
click,Chrome 66.0.3359.181,,2018-08-06 17:00:24,2018-08-06 17:00:24,0.085s,PASSED
click,Chrome 66.0.3359.181,,2018-08-06 17:00:24,2018-08-06 17:00:28,3.500s,PASSED
setText,Chrome 66.0.3359.181,,2018-08-06 17:00:28,2018-08-06 17:00:29,1.021s,PASSED
click,Chrome 66.0.3359.181,,2018-08-06 17:00:29,2018-08-06 17:00:29,0.359s,PASSED
Statement - gridDIDNumber = com.kms.katalon.core.webui.keyword.WebUiBuiltInKeywords.getText(com.kms.katalon.core.testobject.ObjectRepository.findTestObject(Page_DID Individual/td_1234567890)),Chrome 66.0.3359.181,,2018-08-06 17:00:29,2018-08-06 17:00:30,0.330s,PASSED
Statement - If (gridDIDNumber.equals(DIDNumber)),Chrome 66.0.3359.181,,2018-08-06 17:00:30,2018-08-06 17:00:30,0.002s,PASSED
,,,,,,
Test Cases/4_DID_TollFree_Number,Chrome 66.0.3359.181,"1) Open Browser Instance. 
2) Enter Given Admin URL in address bar. 
3) Login as Admin
4) Click On DID Inventory In Side Menu Nevigation
5) Click On DID Individual
6) Click On Create Button
7) Select Nuber Type=Regular, Select Type=Number, Enter Number (Number Field Must Be Accepted If Numberic Only), Description= Any text, MRC = Positive Numeric Value
8) Click On search Button And Enter Created DID Number, Number Type= Regular and Click On Search button",2018-08-06 17:00:30,2018-08-06 17:00:44,14.431s,PASSED
"Statement - chars = ""123456789""",Chrome 66.0.3359.181,,2018-08-06 17:00:30,2018-08-06 17:00:30,0.001s,PASSED
"Statement - DIDNumber = """"",Chrome 66.0.3359.181,,2018-08-06 17:00:30,2018-08-06 17:00:30,0.000s,PASSED
"Statement - DIDNumber = Script1532609223726.randomString((12345 + chars), 5)",Chrome 66.0.3359.181,,2018-08-06 17:00:30,2018-08-06 17:00:30,0.002s,PASSED
Statement - rand = new java.util.Random(),Chrome 66.0.3359.181,,2018-08-06 17:00:30,2018-08-06 17:00:30,0.001s,PASSED
Statement - sb = new java.lang.StringBuilder(),Chrome 66.0.3359.181,,2018-08-06 17:00:30,2018-08-06 17:00:30,0.000s,PASSED
"Statement - For ([i = 0, i < length, (i++)])",Chrome 66.0.3359.181,,2018-08-06 17:00:30,2018-08-06 17:00:30,0.003s,PASSED
Statement - return sb.toString(),Chrome 66.0.3359.181,,2018-08-06 17:00:30,2018-08-06 17:00:30,0.001s,PASSED
click,Chrome 66.0.3359.181,,2018-08-06 17:00:30,2018-08-06 17:00:30,0.025s,NOT_RUN
delay,Chrome 66.0.3359.181,,2018-08-06 17:00:30,2018-08-06 17:00:33,3.001s,PASSED
click,Chrome 66.0.3359.181,,2018-08-06 17:00:33,2018-08-06 17:00:35,2.434s,PASSED
click,Chrome 66.0.3359.181,,2018-08-06 17:00:35,2018-08-06 17:00:36,0.267s,PASSED
selectOptionByValue,Chrome 66.0.3359.181,,2018-08-06 17:00:36,2018-08-06 17:00:39,2.928s,PASSED
selectOptionByValue,Chrome 66.0.3359.181,,2018-08-06 17:00:39,2018-08-06 17:00:39,0.158s,PASSED
setText,Chrome 66.0.3359.181,,2018-08-06 17:00:39,2018-08-06 17:00:39,0.397s,PASSED
click,Chrome 66.0.3359.181,,2018-08-06 17:00:39,2018-08-06 17:00:39,0.116s,PASSED
Statement - actual = com.kms.katalon.core.webui.keyword.WebUiBuiltInKeywords.getText(com.kms.katalon.core.testobject.ObjectRepository.findTestObject(Page_Create DID Inventory/div_Number must be an integer.)),Chrome 66.0.3359.181,,2018-08-06 17:00:39,2018-08-06 17:00:40,0.571s,PASSED
"Statement - validation = ""Number must be an integer.""",Chrome 66.0.3359.181,,2018-08-06 17:00:40,2018-08-06 17:00:40,0.000s,PASSED
Statement - If (actual.equals(validation)),Chrome 66.0.3359.181,,2018-08-06 17:00:40,2018-08-06 17:00:40,0.007s,PASSED
setText,Chrome 66.0.3359.181,,2018-08-06 17:00:40,2018-08-06 17:00:40,0.131s,PASSED
setText,Chrome 66.0.3359.181,,2018-08-06 17:00:40,2018-08-06 17:00:40,0.310s,PASSED
click,Chrome 66.0.3359.181,,2018-08-06 17:00:40,2018-08-06 17:00:40,0.092s,PASSED
click,Chrome 66.0.3359.181,,2018-08-06 17:00:40,2018-08-06 17:00:43,3.000s,PASSED
setText,Chrome 66.0.3359.181,,2018-08-06 17:00:43,2018-08-06 17:00:44,0.513s,PASSED
click,Chrome 66.0.3359.181,,2018-08-06 17:00:44,2018-08-06 17:00:44,0.113s,PASSED
Statement - gridDIDNumber = com.kms.katalon.core.webui.keyword.WebUiBuiltInKeywords.getText(com.kms.katalon.core.testobject.ObjectRepository.findTestObject(Object Repository/Page_DID Individual/td_1234567890)),Chrome 66.0.3359.181,,2018-08-06 17:00:44,2018-08-06 17:00:44,0.063s,PASSED
Statement - If (gridDIDNumber.equals(DIDNumber)),Chrome 66.0.3359.181,,2018-08-06 17:00:44,2018-08-06 17:00:44,0.002s,PASSED
,,,,,,
Test Cases/5_DID_Regular_Range,Chrome 66.0.3359.181,"1) Open Browser Instance. 
2) Enter Given Admin URL in address bar. 
3) Login as Admin
4) Click On DID Inventory In Side Menu Nevigation
5) Click On DID Individual
6) Click On Create Button
7) Select Nuber Type=Regular, Select Type=Number, Enter Number (Number Field Must Be Accepted If Numberic Only), Description= Any text, MRC = Positive Numeric Value
8) Click On search Button And Enter Created DID Number, Number Type= Regular and Click On Search button",2018-08-06 17:00:44,2018-08-06 17:01:04,19.663s,PASSED
click,Chrome 66.0.3359.181,,2018-08-06 17:00:44,2018-08-06 17:00:44,0.001s,NOT_RUN
delay,Chrome 66.0.3359.181,,2018-08-06 17:00:44,2018-08-06 17:00:47,3.016s,PASSED
click,Chrome 66.0.3359.181,,2018-08-06 17:00:47,2018-08-06 17:00:50,2.240s,PASSED
click,Chrome 66.0.3359.181,,2018-08-06 17:00:50,2018-08-06 17:00:50,0.223s,PASSED
selectOptionByValue,Chrome 66.0.3359.181,,2018-08-06 17:00:50,2018-08-06 17:00:52,2.621s,PASSED
selectOptionByValue,Chrome 66.0.3359.181,,2018-08-06 17:00:52,2018-08-06 17:00:53,0.259s,PASSED
Statement - i = <not implemented yet for class: org.codehaus.groovy.ast.expr.EmptyExpression>,Chrome 66.0.3359.181,,2018-08-06 17:00:53,2018-08-06 17:00:53,0.000s,PASSED
Statement - FromNumberGreter = <not implemented yet for class: org.codehaus.groovy.ast.expr.EmptyExpression>,Chrome 66.0.3359.181,,2018-08-06 17:00:53,2018-08-06 17:00:53,0.000s,PASSED
Statement - FromNumber = <not implemented yet for class: org.codehaus.groovy.ast.expr.EmptyExpression>,Chrome 66.0.3359.181,,2018-08-06 17:00:53,2018-08-06 17:00:53,0.000s,PASSED
Statement - rand = new java.util.Random(),Chrome 66.0.3359.181,,2018-08-06 17:00:53,2018-08-06 17:00:53,0.000s,PASSED
Statement - FromNumber = rand.nextInt(99999999),Chrome 66.0.3359.181,,2018-08-06 17:00:53,2018-08-06 17:00:53,0.000s,PASSED
Statement - FromNumberGreter = FromNumber + 2,Chrome 66.0.3359.181,,2018-08-06 17:00:53,2018-08-06 17:00:53,0.000s,PASSED
Statement - FromNumberGreter1 = FromNumberGreter.toString(),Chrome 66.0.3359.181,,2018-08-06 17:00:53,2018-08-06 17:00:53,0.001s,PASSED
Statement - FromNumber1 = FromNumber.toString(),Chrome 66.0.3359.181,,2018-08-06 17:00:53,2018-08-06 17:00:53,0.001s,PASSED
setText,Chrome 66.0.3359.181,,2018-08-06 17:00:53,2018-08-06 17:00:53,0.366s,PASSED
setText,Chrome 66.0.3359.181,,2018-08-06 17:00:53,2018-08-06 17:00:53,0.246s,PASSED
click,Chrome 66.0.3359.181,,2018-08-06 17:00:53,2018-08-06 17:00:54,0.289s,PASSED
"Statement - ToValidationExpected = ""To must be greater than or equal to ""From"".""",Chrome 66.0.3359.181,,2018-08-06 17:00:54,2018-08-06 17:00:54,0.001s,PASSED
Statement - ToActual = com.kms.katalon.core.webui.keyword.WebUiBuiltInKeywords.getText(com.kms.katalon.core.testobject.ObjectRepository.findTestObject(Object Repository/Page_Create DID Inventory/div_To must be greater than or)),Chrome 66.0.3359.181,,2018-08-06 17:00:54,2018-08-06 17:00:54,0.646s,PASSED
Statement - If (ToActual.equals(ToValidationExpected)),Chrome 66.0.3359.181,,2018-08-06 17:00:54,2018-08-06 17:00:54,0.001s,PASSED
setText,Chrome 66.0.3359.181,,2018-08-06 17:00:54,2018-08-06 17:00:55,0.303s,PASSED
click,Chrome 66.0.3359.181,,2018-08-06 17:00:55,2018-08-06 17:00:55,0.075s,PASSED
delay,Chrome 66.0.3359.181,,2018-08-06 17:00:55,2018-08-06 17:00:57,2.001s,PASSED
Statement - actual = com.kms.katalon.core.webui.keyword.WebUiBuiltInKeywords.getText(com.kms.katalon.core.testobject.ObjectRepository.findTestObject(Object Repository/Page_Create DID Inventory/div_from_must_be_integer)),Chrome 66.0.3359.181,,2018-08-06 17:00:57,2018-08-06 17:00:57,0.067s,PASSED
"Statement - validation = ""From must be an integer.""",Chrome 66.0.3359.181,,2018-08-06 17:00:57,2018-08-06 17:00:57,0.000s,PASSED
Statement - If (actual.equals(validation)),Chrome 66.0.3359.181,,2018-08-06 17:00:57,2018-08-06 17:00:57,0.002s,PASSED
setText,Chrome 66.0.3359.181,,2018-08-06 17:00:57,2018-08-06 17:00:57,0.153s,PASSED
setText,Chrome 66.0.3359.181,,2018-08-06 17:00:57,2018-08-06 17:00:57,0.324s,PASSED
setText,Chrome 66.0.3359.181,,2018-08-06 17:00:57,2018-08-06 17:00:58,0.257s,PASSED
click,Chrome 66.0.3359.181,,2018-08-06 17:00:58,2018-08-06 17:00:58,0.082s,PASSED
delay,Chrome 66.0.3359.181,,2018-08-06 17:00:58,2018-08-06 17:01:03,5.001s,PASSED
click,Chrome 66.0.3359.181,,2018-08-06 17:01:03,2018-08-06 17:01:03,0.262s,PASSED
setText,Chrome 66.0.3359.181,,2018-08-06 17:01:03,2018-08-06 17:01:03,0.592s,PASSED
click,Chrome 66.0.3359.181,,2018-08-06 17:01:03,2018-08-06 17:01:04,0.243s,PASSED
Statement - gridDIDNumber = com.kms.katalon.core.webui.keyword.WebUiBuiltInKeywords.getText(com.kms.katalon.core.testobject.ObjectRepository.findTestObject(Object Repository/Page_DID Individual/td_1234567890)),Chrome 66.0.3359.181,,2018-08-06 17:01:04,2018-08-06 17:01:04,0.065s,PASSED
Statement - println(gridDIDNumber),Chrome 66.0.3359.181,,2018-08-06 17:01:04,2018-08-06 17:01:04,0.004s,PASSED
Statement - If (gridDIDNumber.equals(FromNumberGreter1)),Chrome 66.0.3359.181,,2018-08-06 17:01:04,2018-08-06 17:01:04,0.001s,PASSED
,,,,,,
Test Cases/6_DID_TollFree_Range,Chrome 66.0.3359.181,"1) Open Browser Instance. 
2) Enter Given Admin URL in address bar. 
3) Login as Admin
4) Click On DID Inventory In Side Menu Nevigation
5) Click On DID Individual
6) Click On Create Button
7) Select Nuber Type=Regular, Select Type=Number, Enter Number (Number Field Must Be Accepted If Numberic Only), Description= Any text, MRC = Positive Numeric Value
8) Click On search Button And Enter Created DID Number, Number Type= Regular and Click On Search button",2018-08-06 17:01:04,2018-08-06 17:01:23,19.517s,PASSED
click,Chrome 66.0.3359.181,,2018-08-06 17:01:04,2018-08-06 17:01:04,0.001s,NOT_RUN
delay,Chrome 66.0.3359.181,,2018-08-06 17:01:04,2018-08-06 17:01:07,3.001s,PASSED
click,Chrome 66.0.3359.181,,2018-08-06 17:01:07,2018-08-06 17:01:09,2.154s,PASSED
click,Chrome 66.0.3359.181,,2018-08-06 17:01:09,2018-08-06 17:01:09,0.227s,PASSED
selectOptionByValue,Chrome 66.0.3359.181,,2018-08-06 17:01:09,2018-08-06 17:01:12,2.592s,PASSED
selectOptionByValue,Chrome 66.0.3359.181,,2018-08-06 17:01:12,2018-08-06 17:01:12,0.363s,PASSED
Statement - i = <not implemented yet for class: org.codehaus.groovy.ast.expr.EmptyExpression>,Chrome 66.0.3359.181,,2018-08-06 17:01:12,2018-08-06 17:01:12,0.001s,PASSED
Statement - FromNumberGreter = <not implemented yet for class: org.codehaus.groovy.ast.expr.EmptyExpression>,Chrome 66.0.3359.181,,2018-08-06 17:01:12,2018-08-06 17:01:12,0.001s,PASSED
Statement - FromNumber = <not implemented yet for class: org.codehaus.groovy.ast.expr.EmptyExpression>,Chrome 66.0.3359.181,,2018-08-06 17:01:12,2018-08-06 17:01:12,0.001s,PASSED
Statement - rand = new java.util.Random(),Chrome 66.0.3359.181,,2018-08-06 17:01:12,2018-08-06 17:01:12,0.001s,PASSED
Statement - FromNumber = rand.nextInt(99999999),Chrome 66.0.3359.181,,2018-08-06 17:01:12,2018-08-06 17:01:12,0.001s,PASSED
Statement - FromNumberGreter = FromNumber + 2,Chrome 66.0.3359.181,,2018-08-06 17:01:12,2018-08-06 17:01:12,0.000s,PASSED
Statement - FromNumberGreter1 = FromNumberGreter.toString(),Chrome 66.0.3359.181,,2018-08-06 17:01:12,2018-08-06 17:01:12,0.000s,PASSED
Statement - FromNumber1 = FromNumber.toString(),Chrome 66.0.3359.181,,2018-08-06 17:01:12,2018-08-06 17:01:12,0.000s,PASSED
Statement - DIDFrom = FromNumber1,Chrome 66.0.3359.181,,2018-08-06 17:01:12,2018-08-06 17:01:12,0.001s,PASSED
Statement - DIDTo = FromNumberGreter1,Chrome 66.0.3359.181,,2018-08-06 17:01:12,2018-08-06 17:01:12,0.000s,PASSED
Statement - println(DIDFrom),Chrome 66.0.3359.181,,2018-08-06 17:01:12,2018-08-06 17:01:12,0.002s,PASSED
setText,Chrome 66.0.3359.181,,2018-08-06 17:01:12,2018-08-06 17:01:13,0.424s,PASSED
setText,Chrome 66.0.3359.181,,2018-08-06 17:01:13,2018-08-06 17:01:13,0.173s,PASSED
click,Chrome 66.0.3359.181,,2018-08-06 17:01:13,2018-08-06 17:01:13,0.325s,PASSED
"Statement - ToValidationExpected = ""To must be greater than or equal to ""From"".""",Chrome 66.0.3359.181,,2018-08-06 17:01:13,2018-08-06 17:01:13,0.000s,PASSED
Statement - ToActual = com.kms.katalon.core.webui.keyword.WebUiBuiltInKeywords.getText(com.kms.katalon.core.testobject.ObjectRepository.findTestObject(Object Repository/Page_Create DID Inventory/div_To must be greater than or)),Chrome 66.0.3359.181,,2018-08-06 17:01:13,2018-08-06 17:01:14,0.659s,PASSED
Statement - If (ToActual.equals(ToValidationExpected)),Chrome 66.0.3359.181,,2018-08-06 17:01:14,2018-08-06 17:01:14,0.001s,PASSED
setText,Chrome 66.0.3359.181,,2018-08-06 17:01:14,2018-08-06 17:01:14,0.180s,PASSED
click,Chrome 66.0.3359.181,,2018-08-06 17:01:14,2018-08-06 17:01:14,0.068s,PASSED
delay,Chrome 66.0.3359.181,,2018-08-06 17:01:14,2018-08-06 17:01:16,2.002s,PASSED
Statement - actual = com.kms.katalon.core.webui.keyword.WebUiBuiltInKeywords.getText(com.kms.katalon.core.testobject.ObjectRepository.findTestObject(Object Repository/Page_Create DID Inventory/div_from_must_be_integer)),Chrome 66.0.3359.181,,2018-08-06 17:01:16,2018-08-06 17:01:16,0.145s,PASSED
"Statement - validation = ""From must be an integer.""",Chrome 66.0.3359.181,,2018-08-06 17:01:16,2018-08-06 17:01:16,0.001s,PASSED
Statement - If (actual.equals(validation)),Chrome 66.0.3359.181,,2018-08-06 17:01:16,2018-08-06 17:01:16,0.001s,PASSED
setText,Chrome 66.0.3359.181,,2018-08-06 17:01:16,2018-08-06 17:01:17,0.218s,PASSED
setText,Chrome 66.0.3359.181,,2018-08-06 17:01:17,2018-08-06 17:01:17,0.140s,PASSED
setText,Chrome 66.0.3359.181,,2018-08-06 17:01:17,2018-08-06 17:01:17,0.303s,PASSED
click,Chrome 66.0.3359.181,,2018-08-06 17:01:17,2018-08-06 17:01:17,0.094s,PASSED
delay,Chrome 66.0.3359.181,,2018-08-06 17:01:17,2018-08-06 17:01:22,5.001s,PASSED
click,Chrome 66.0.3359.181,,2018-08-06 17:01:22,2018-08-06 17:01:22,0.273s,PASSED
setText,Chrome 66.0.3359.181,,2018-08-06 17:01:22,2018-08-06 17:01:23,0.491s,PASSED
click,Chrome 66.0.3359.181,,2018-08-06 17:01:23,2018-08-06 17:01:23,0.317s,PASSED
Statement - gridDIDNumber = com.kms.katalon.core.webui.keyword.WebUiBuiltInKeywords.getText(com.kms.katalon.core.testobject.ObjectRepository.findTestObject(Object Repository/Page_DID Individual/td_1234567890)),Chrome 66.0.3359.181,,2018-08-06 17:01:23,2018-08-06 17:01:23,0.054s,PASSED
Statement - println(gridDIDNumber),Chrome 66.0.3359.181,,2018-08-06 17:01:23,2018-08-06 17:01:23,0.001s,PASSED
Statement - If (gridDIDNumber.equals(FromNumberGreter1)),Chrome 66.0.3359.181,,2018-08-06 17:01:23,2018-08-06 17:01:23,0.002s,PASSED
,,,,,,
Test Cases/7_Create_Individual_DID_Bundle,Chrome 66.0.3359.181,,2018-08-06 17:01:23,2018-08-06 17:01:42,19.030s,PASSED
delay,Chrome 66.0.3359.181,,2018-08-06 17:01:24,2018-08-06 17:01:27,3.002s,PASSED
click,Chrome 66.0.3359.181,,2018-08-06 17:01:27,2018-08-06 17:01:27,0.001s,NOT_RUN
delay,Chrome 66.0.3359.181,,2018-08-06 17:01:27,2018-08-06 17:01:30,3.000s,PASSED
click,Chrome 66.0.3359.181,,2018-08-06 17:01:30,2018-08-06 17:01:31,1.522s,PASSED
click,Chrome 66.0.3359.181,,2018-08-06 17:01:31,2018-08-06 17:01:31,0.336s,PASSED
"Statement - chars = ""abcdefghijklmnopqrstuvwxyz123456789""",Chrome 66.0.3359.181,,2018-08-06 17:01:31,2018-08-06 17:01:31,0.001s,PASSED
"Statement - ExpectedTenantName = """"",Chrome 66.0.3359.181,,2018-08-06 17:01:31,2018-08-06 17:01:31,0.001s,PASSED
"Statement - BundleName = Script1533049807181.randomString((AUTOMATION + chars), 5)",Chrome 66.0.3359.181,,2018-08-06 17:01:31,2018-08-06 17:01:31,0.002s,PASSED
Statement - rand = new java.util.Random(),Chrome 66.0.3359.181,,2018-08-06 17:01:31,2018-08-06 17:01:31,0.001s,PASSED
Statement - sb = new java.lang.StringBuilder(),Chrome 66.0.3359.181,,2018-08-06 17:01:31,2018-08-06 17:01:31,0.001s,PASSED
"Statement - For ([i = 0, i < length, (i++)])",Chrome 66.0.3359.181,,2018-08-06 17:01:31,2018-08-06 17:01:31,0.006s,PASSED
Statement - return sb.toString(),Chrome 66.0.3359.181,,2018-08-06 17:01:31,2018-08-06 17:01:31,0.000s,PASSED
setText,Chrome 66.0.3359.181,,2018-08-06 17:01:31,2018-08-06 17:01:36,4.761s,PASSED
selectOptionByValue,Chrome 66.0.3359.181,,2018-08-06 17:01:36,2018-08-06 17:01:37,0.427s,PASSED
setText,Chrome 66.0.3359.181,,2018-08-06 17:01:37,2018-08-06 17:01:38,0.915s,PASSED
doubleClick,Chrome 66.0.3359.181,,2018-08-06 17:01:38,2018-08-06 17:01:38,0.187s,PASSED
click,Chrome 66.0.3359.181,,2018-08-06 17:01:38,2018-08-06 17:01:38,0.131s,PASSED
setText,Chrome 66.0.3359.181,,2018-08-06 17:01:38,2018-08-06 17:01:38,0.545s,PASSED
doubleClick,Chrome 66.0.3359.181,,2018-08-06 17:01:38,2018-08-06 17:01:39,0.229s,PASSED
click,Chrome 66.0.3359.181,,2018-08-06 17:01:39,2018-08-06 17:01:39,0.279s,PASSED
click,Chrome 66.0.3359.181,,2018-08-06 17:01:39,2018-08-06 17:01:39,0.145s,PASSED
click,Chrome 66.0.3359.181,,2018-08-06 17:01:39,2018-08-06 17:01:42,2.509s,PASSED
setText,Chrome 66.0.3359.181,,2018-08-06 17:01:42,2018-08-06 17:01:42,0.513s,PASSED
click,Chrome 66.0.3359.181,,2018-08-06 17:01:42,2018-08-06 17:01:42,0.136s,PASSED
Statement - bundleName = com.kms.katalon.core.webui.keyword.WebUiBuiltInKeywords.getText(com.kms.katalon.core.testobject.ObjectRepository.findTestObject(Page_DID Bundle/td_Test1)),Chrome 66.0.3359.181,,2018-08-06 17:01:42,2018-08-06 17:01:42,0.059s,PASSED
Statement - If (bundleName.equals(bundleName)),Chrome 66.0.3359.181,,2018-08-06 17:01:42,2018-08-06 17:01:42,0.001s,PASSED
,,,,,,
Test Cases/2_CreateTenant,Chrome 66.0.3359.181,,2018-08-06 17:01:42,2018-08-06 17:03:14,1m - 32.139s,PASSED
click,Chrome 66.0.3359.181,,2018-08-06 17:01:43,2018-08-06 17:01:47,3.999s,PASSED
"Statement - Expectedpage = ""Dashboard""",Chrome 66.0.3359.181,,2018-08-06 17:01:47,2018-08-06 17:01:47,0.000s,PASSED
"Statement - chars = ""abcdefghijklmnopqrstuvwxyz0123456789""",Chrome 66.0.3359.181,,2018-08-06 17:01:47,2018-08-06 17:01:47,0.001s,PASSED
"Statement - ExpectedTenantName = """"",Chrome 66.0.3359.181,,2018-08-06 17:01:47,2018-08-06 17:01:47,0.000s,PASSED
"Statement - ExpectedTenantName = Script1532436773627.randomString((AUTOMATION + chars), 5)",Chrome 66.0.3359.181,,2018-08-06 17:01:47,2018-08-06 17:01:47,0.001s,PASSED
Statement - rand = new java.util.Random(),Chrome 66.0.3359.181,,2018-08-06 17:01:47,2018-08-06 17:01:47,0.000s,PASSED
Statement - sb = new java.lang.StringBuilder(),Chrome 66.0.3359.181,,2018-08-06 17:01:47,2018-08-06 17:01:47,0.001s,PASSED
"Statement - For ([i = 0, i < length, (i++)])",Chrome 66.0.3359.181,,2018-08-06 17:01:47,2018-08-06 17:01:47,0.003s,PASSED
Statement - return sb.toString(),Chrome 66.0.3359.181,,2018-08-06 17:01:47,2018-08-06 17:01:47,0.001s,PASSED
Statement - TenantName = ExpectedTenantName,Chrome 66.0.3359.181,,2018-08-06 17:01:47,2018-08-06 17:01:47,0.001s,PASSED
click,Chrome 66.0.3359.181,,2018-08-06 17:01:47,2018-08-06 17:01:52,4.846s,PASSED
setText,Chrome 66.0.3359.181,,2018-08-06 17:01:52,2018-08-06 17:01:52,0.349s,PASSED
setText,Chrome 66.0.3359.181,,2018-08-06 17:01:52,2018-08-06 17:01:53,0.963s,PASSED
setText,Chrome 66.0.3359.181,,2018-08-06 17:01:53,2018-08-06 17:01:53,0.290s,PASSED
setEncryptedText,Chrome 66.0.3359.181,,2018-08-06 17:01:53,2018-08-06 17:01:54,0.506s,PASSED
delay,Chrome 66.0.3359.181,,2018-08-06 17:01:54,2018-08-06 17:01:59,5.001s,PASSED
selectOptionByIndex,Chrome 66.0.3359.181,,2018-08-06 17:01:59,2018-08-06 17:01:59,0.496s,PASSED
delay,Chrome 66.0.3359.181,,2018-08-06 17:01:59,2018-08-06 17:02:04,5.002s,PASSED
setText,Chrome 66.0.3359.181,,2018-08-06 17:02:04,2018-08-06 17:02:05,0.533s,PASSED
setText,Chrome 66.0.3359.181,,2018-08-06 17:02:05,2018-08-06 17:02:05,0.497s,PASSED
setText,Chrome 66.0.3359.181,,2018-08-06 17:02:05,2018-08-06 17:02:06,0.785s,PASSED
selectOptionByValue,Chrome 66.0.3359.181,,2018-08-06 17:02:06,2018-08-06 17:02:06,0.382s,PASSED
delay,Chrome 66.0.3359.181,,2018-08-06 17:02:06,2018-08-06 17:02:11,5.001s,PASSED
scrollToElement,Chrome 66.0.3359.181,,2018-08-06 17:02:11,2018-08-06 17:02:12,0.202s,PASSED
selectOptionByLabel,Chrome 66.0.3359.181,,2018-08-06 17:02:12,2018-08-06 17:02:12,0.769s,PASSED
delay,Chrome 66.0.3359.181,,2018-08-06 17:02:12,2018-08-06 17:02:17,5.002s,PASSED
selectOptionByValue,Chrome 66.0.3359.181,,2018-08-06 17:02:17,2018-08-06 17:02:18,0.465s,PASSED
delay,Chrome 66.0.3359.181,,2018-08-06 17:02:18,2018-08-06 17:02:23,5.002s,PASSED
click,Chrome 66.0.3359.181,,2018-08-06 17:02:23,2018-08-06 17:02:23,0.287s,PASSED
delay,Chrome 66.0.3359.181,,2018-08-06 17:02:23,2018-08-06 17:02:28,5.001s,PASSED
setText,Chrome 66.0.3359.181,,2018-08-06 17:02:28,2018-08-06 17:02:30,1.488s,PASSED
click,Chrome 66.0.3359.181,,2018-08-06 17:02:30,2018-08-06 17:02:30,0.153s,PASSED
click,Chrome 66.0.3359.181,,2018-08-06 17:02:30,2018-08-06 17:02:30,0.188s,PASSED
click,Chrome 66.0.3359.181,,2018-08-06 17:02:30,2018-08-06 17:02:30,0.187s,PASSED
scrollToElement,Chrome 66.0.3359.181,,2018-08-06 17:02:30,2018-08-06 17:02:34,3.690s,PASSED
click,Chrome 66.0.3359.181,,2018-08-06 17:02:34,2018-08-06 17:02:37,2.927s,PASSED
click,Chrome 66.0.3359.181,,2018-08-06 17:02:37,2018-08-06 17:02:37,0.001s,NOT_RUN
click,Chrome 66.0.3359.181,,2018-08-06 17:02:37,2018-08-06 17:02:37,0.425s,PASSED
setText,Chrome 66.0.3359.181,,2018-08-06 17:02:37,2018-08-06 17:02:38,0.521s,PASSED
click,Chrome 66.0.3359.181,,2018-08-06 17:02:38,2018-08-06 17:02:38,0.232s,PASSED
click,Chrome 66.0.3359.181,,2018-08-06 17:02:38,2018-08-06 17:02:38,0.406s,PASSED
click,Chrome 66.0.3359.181,,2018-08-06 17:02:38,2018-08-06 17:02:39,0.354s,PASSED
delay,Chrome 66.0.3359.181,,2018-08-06 17:02:39,2018-08-06 17:02:42,3.002s,PASSED
switchToWindowTitle,Chrome 66.0.3359.181,,2018-08-06 17:02:42,2018-08-06 17:02:50,8.160s,PASSED
delay,Chrome 66.0.3359.181,,2018-08-06 17:02:50,2018-08-06 17:02:55,5.002s,PASSED
Statement - println(com.kms.katalon.core.webui.keyword.WebUiBuiltInKeywords.getText(com.kms.katalon.core.testobject.ObjectRepository.findTestObject(Object Repository/Page_Admin/h4_63))),Chrome 66.0.3359.181,,2018-08-06 17:02:55,2018-08-06 17:02:55,0.045s,PASSED
delay,Chrome 66.0.3359.181,,2018-08-06 17:02:55,2018-08-06 17:02:58,3.002s,PASSED
Statement - ActualTenantName = com.kms.katalon.core.webui.keyword.WebUiBuiltInKeywords.getText(com.kms.katalon.core.testobject.ObjectRepository.findTestObject(Object Repository/Page_Admin/h4_63)),Chrome 66.0.3359.181,,2018-08-06 17:02:58,2018-08-06 17:02:58,0.066s,PASSED
Statement - If (ExpectedTenantName.equals(ActualTenantName)),Chrome 66.0.3359.181,,2018-08-06 17:02:58,2018-08-06 17:02:58,0.001s,PASSED
delay,Chrome 66.0.3359.181,,2018-08-06 17:02:58,2018-08-06 17:03:01,3.002s,PASSED
click,Chrome 66.0.3359.181,,2018-08-06 17:03:01,2018-08-06 17:03:01,0.264s,PASSED
delay,Chrome 66.0.3359.181,,2018-08-06 17:03:01,2018-08-06 17:03:04,3.002s,PASSED
click,Chrome 66.0.3359.181,,2018-08-06 17:03:04,2018-08-06 17:03:08,4.052s,PASSED
delay,Chrome 66.0.3359.181,,2018-08-06 17:03:08,2018-08-06 17:03:11,3.002s,PASSED
closeWindowIndex,Chrome 66.0.3359.181,,2018-08-06 17:03:11,2018-08-06 17:03:11,0.147s,PASSED
switchToWindowTitle,Chrome 66.0.3359.181,,2018-08-06 17:03:11,2018-08-06 17:03:11,0.072s,PASSED
delay,Chrome 66.0.3359.181,,2018-08-06 17:03:11,2018-08-06 17:03:14,3.000s,PASSED
,,,,,,
Test Cases/11_Assign_DID_To_Tenant,Chrome 66.0.3359.181,Verify Assigned DID shows properly in Tenant,2018-08-06 17:03:14,2018-08-06 17:03:52,37.884s,PASSED
click,Chrome 66.0.3359.181,,2018-08-06 17:03:15,2018-08-06 17:03:15,0.001s,NOT_RUN
click,Chrome 66.0.3359.181,,2018-08-06 17:03:15,2018-08-06 17:03:15,0.001s,NOT_RUN
setText,Chrome 66.0.3359.181,,2018-08-06 17:03:15,2018-08-06 17:03:15,0.000s,NOT_RUN
click,Chrome 66.0.3359.181,,2018-08-06 17:03:15,2018-08-06 17:03:15,0.000s,NOT_RUN
delay,Chrome 66.0.3359.181,,2018-08-06 17:03:15,2018-08-06 17:03:18,3.002s,PASSED
click,Chrome 66.0.3359.181,,2018-08-06 17:03:18,2018-08-06 17:03:18,0.001s,NOT_RUN
click,Chrome 66.0.3359.181,,2018-08-06 17:03:18,2018-08-06 17:03:18,0.262s,PASSED
delay,Chrome 66.0.3359.181,,2018-08-06 17:03:18,2018-08-06 17:03:21,3.001s,PASSED
switchToWindowTitle,Chrome 66.0.3359.181,,2018-08-06 17:03:21,2018-08-06 17:03:23,1.553s,PASSED
delay,Chrome 66.0.3359.181,,2018-08-06 17:03:23,2018-08-06 17:03:26,3.002s,PASSED
switchToWindowTitle,Chrome 66.0.3359.181,,2018-08-06 17:03:26,2018-08-06 17:03:26,0.001s,NOT_RUN
click,Chrome 66.0.3359.181,,2018-08-06 17:03:26,2018-08-06 17:03:35,9.338s,PASSED
click,Chrome 66.0.3359.181,,2018-08-06 17:03:35,2018-08-06 17:03:35,0.248s,PASSED
setText,Chrome 66.0.3359.181,,2018-08-06 17:03:35,2018-08-06 17:03:36,0.534s,PASSED
click,Chrome 66.0.3359.181,,2018-08-06 17:03:36,2018-08-06 17:03:36,0.168s,PASSED
Statement - getDIDName = com.kms.katalon.core.webui.keyword.WebUiBuiltInKeywords.getText(com.kms.katalon.core.testobject.ObjectRepository.findTestObject(Page_DID/td_2674991212)),Chrome 66.0.3359.181,,2018-08-06 17:03:36,2018-08-06 17:03:36,0.079s,PASSED
Statement - If (getDIDName.equals(DIDNumber)),Chrome 66.0.3359.181,,2018-08-06 17:03:36,2018-08-06 17:03:36,0.001s,PASSED
delay,Chrome 66.0.3359.181,,2018-08-06 17:03:36,2018-08-06 17:03:39,3.001s,PASSED
click,Chrome 66.0.3359.181,,2018-08-06 17:03:39,2018-08-06 17:03:39,0.105s,PASSED
delay,Chrome 66.0.3359.181,,2018-08-06 17:03:39,2018-08-06 17:03:42,3.002s,PASSED
click,Chrome 66.0.3359.181,,2018-08-06 17:03:42,2018-08-06 17:03:44,2.082s,PASSED
delay,Chrome 66.0.3359.181,,2018-08-06 17:03:44,2018-08-06 17:03:47,3.002s,PASSED
closeWindowIndex,Chrome 66.0.3359.181,,2018-08-06 17:03:47,2018-08-06 17:03:47,0.075s,PASSED
delay,Chrome 66.0.3359.181,,2018-08-06 17:03:47,2018-08-06 17:03:49,2.001s,PASSED
switchToWindowTitle,Chrome 66.0.3359.181,,2018-08-06 17:03:49,2018-08-06 17:03:49,0.114s,PASSED
delay,Chrome 66.0.3359.181,,2018-08-06 17:03:49,2018-08-06 17:03:52,3.001s,PASSED
,,,,,,
Test Cases/12_CreateUser,Chrome 66.0.3359.181,"Login into tenant, create user.",2018-08-06 17:03:52,2018-08-06 17:04:47,54.447s,PASSED
click,Chrome 66.0.3359.181,,2018-08-06 17:03:53,2018-08-06 17:03:56,3.717s,PASSED
click,Chrome 66.0.3359.181,,2018-08-06 17:03:56,2018-08-06 17:03:57,0.225s,PASSED
delay,Chrome 66.0.3359.181,,2018-08-06 17:03:57,2018-08-06 17:04:00,3.001s,PASSED
setText,Chrome 66.0.3359.181,,2018-08-06 17:04:00,2018-08-06 17:04:00,0.413s,PASSED
click,Chrome 66.0.3359.181,,2018-08-06 17:04:00,2018-08-06 17:04:00,0.213s,PASSED
click,Chrome 66.0.3359.181,,2018-08-06 17:04:00,2018-08-06 17:04:00,0.216s,PASSED
delay,Chrome 66.0.3359.181,,2018-08-06 17:04:00,2018-08-06 17:04:03,3.002s,PASSED
switchToWindowTitle,Chrome 66.0.3359.181,,2018-08-06 17:04:03,2018-08-06 17:04:06,2.421s,PASSED
click,Chrome 66.0.3359.181,,2018-08-06 17:04:06,2018-08-06 17:04:06,0.251s,PASSED
click,Chrome 66.0.3359.181,,2018-08-06 17:04:06,2018-08-06 17:04:13,7.097s,PASSED
click,Chrome 66.0.3359.181,,2018-08-06 17:04:13,2018-08-06 17:04:13,0.273s,PASSED
delay,Chrome 66.0.3359.181,,2018-08-06 17:04:13,2018-08-06 17:04:15,2.002s,PASSED
"Statement - chars = ""abcdefghijklmnopqrstuvwxyz0123456789""",Chrome 66.0.3359.181,,2018-08-06 17:04:15,2018-08-06 17:04:15,0.001s,PASSED
"Statement - userName = """"",Chrome 66.0.3359.181,,2018-08-06 17:04:15,2018-08-06 17:04:15,0.000s,PASSED
"Statement - userName = Script1533536280670.randomString((AUTOMATION + chars), 5)",Chrome 66.0.3359.181,,2018-08-06 17:04:15,2018-08-06 17:04:15,0.002s,PASSED
Statement - rand = new java.util.Random(),Chrome 66.0.3359.181,,2018-08-06 17:04:15,2018-08-06 17:04:15,0.001s,PASSED
Statement - sb = new java.lang.StringBuilder(),Chrome 66.0.3359.181,,2018-08-06 17:04:15,2018-08-06 17:04:15,0.000s,PASSED
"Statement - For ([i = 0, i < length, (i++)])",Chrome 66.0.3359.181,,2018-08-06 17:04:15,2018-08-06 17:04:15,0.002s,PASSED
Statement - return sb.toString(),Chrome 66.0.3359.181,,2018-08-06 17:04:15,2018-08-06 17:04:15,0.000s,PASSED
Statement - ExtensionName = userName,Chrome 66.0.3359.181,,2018-08-06 17:04:15,2018-08-06 17:04:15,0.001s,PASSED
setText,Chrome 66.0.3359.181,,2018-08-06 17:04:15,2018-08-06 17:04:20,4.358s,PASSED
setText,Chrome 66.0.3359.181,,2018-08-06 17:04:20,2018-08-06 17:04:20,0.495s,PASSED
setEncryptedText,Chrome 66.0.3359.181,,2018-08-06 17:04:20,2018-08-06 17:04:21,0.460s,PASSED
Statement - rand = new java.util.Random(),Chrome 66.0.3359.181,,2018-08-06 17:04:21,2018-08-06 17:04:21,0.000s,PASSED
Statement - ExtensionNumberInt = rand.nextInt(99999999),Chrome 66.0.3359.181,,2018-08-06 17:04:21,2018-08-06 17:04:21,0.000s,PASSED
Statement - ExtensionNumber = ExtensionNumberInt.toString(),Chrome 66.0.3359.181,,2018-08-06 17:04:21,2018-08-06 17:04:21,0.001s,PASSED
setText,Chrome 66.0.3359.181,,2018-08-06 17:04:21,2018-08-06 17:04:21,0.461s,PASSED
delay,Chrome 66.0.3359.181,,2018-08-06 17:04:21,2018-08-06 17:04:23,2.000s,PASSED
scrollToElement,Chrome 66.0.3359.181,,2018-08-06 17:04:23,2018-08-06 17:04:23,0.173s,PASSED
delay,Chrome 66.0.3359.181,,2018-08-06 17:04:23,2018-08-06 17:04:24,1.000s,PASSED
click,Chrome 66.0.3359.181,,2018-08-06 17:04:24,2018-08-06 17:04:25,0.159s,PASSED
click,Chrome 66.0.3359.181,,2018-08-06 17:04:25,2018-08-06 17:04:30,5.080s,PASSED
setText,Chrome 66.0.3359.181,,2018-08-06 17:04:30,2018-08-06 17:04:30,0.585s,PASSED
click,Chrome 66.0.3359.181,,2018-08-06 17:04:30,2018-08-06 17:04:31,0.275s,PASSED
Statement - firstlastname = com.kms.katalon.core.webui.keyword.WebUiBuiltInKeywords.getText(com.kms.katalon.core.testobject.ObjectRepository.findTestObject(Object Repository/Page_User/td_TestUser LastName)),Chrome 66.0.3359.181,,2018-08-06 17:04:31,2018-08-06 17:04:31,0.052s,PASSED
Statement - If (firstlastname.contains(userName)),Chrome 66.0.3359.181,,2018-08-06 17:04:31,2018-08-06 17:04:31,0.003s,PASSED
delay,Chrome 66.0.3359.181,,2018-08-06 17:04:31,2018-08-06 17:04:34,3.001s,PASSED
click,Chrome 66.0.3359.181,,2018-08-06 17:04:34,2018-08-06 17:04:36,2.228s,PASSED
delay,Chrome 66.0.3359.181,,2018-08-06 17:04:36,2018-08-06 17:04:39,3.001s,PASSED
click,Chrome 66.0.3359.181,,2018-08-06 17:04:39,2018-08-06 17:04:41,1.735s,PASSED
delay,Chrome 66.0.3359.181,,2018-08-06 17:04:41,2018-08-06 17:04:44,3.002s,PASSED
closeWindowIndex,Chrome 66.0.3359.181,,2018-08-06 17:04:44,2018-08-06 17:04:44,0.133s,PASSED
switchToWindowTitle,Chrome 66.0.3359.181,,2018-08-06 17:04:44,2018-08-06 17:04:44,0.109s,PASSED
delay,Chrome 66.0.3359.181,,2018-08-06 17:04:44,2018-08-06 17:04:47,3.002s,PASSED
,,,,,,
Test Cases/99_Logout,Chrome 66.0.3359.181,,2018-08-06 17:04:47,2018-08-06 17:04:59,12.346s,PASSED
delay,Chrome 66.0.3359.181,,2018-08-06 17:04:47,2018-08-06 17:04:52,5.001s,PASSED
click,Chrome 66.0.3359.181,,2018-08-06 17:04:52,2018-08-06 17:04:52,0.107s,PASSED
delay,Chrome 66.0.3359.181,,2018-08-06 17:04:52,2018-08-06 17:04:57,5.003s,PASSED
click,Chrome 66.0.3359.181,,2018-08-06 17:04:57,2018-08-06 17:04:59,1.976s,PASSED
