Suite/Test/Step Name,Browser,Description,Start time,End time,Duration,Status
ServicePackage_Tenant_DID,Chrome 66.0.3359.181,,2018-08-14 16:22:07,2018-08-14 16:25:35,3m - 27.660s,FAILED
,,,,,,
Test Cases/13_AudioLibrary,Chrome 66.0.3359.181,,2018-08-14 16:22:08,2018-08-14 16:24:28,2m - 20.485s,FAILED
delay,Chrome 66.0.3359.181,,2018-08-14 16:22:08,2018-08-14 16:22:08,0.002s,NOT_RUN
openBrowser,Chrome 66.0.3359.181,,2018-08-14 16:22:08,2018-08-14 16:22:12,3.877s,PASSED
navigateToUrl,Chrome 66.0.3359.181,,2018-08-14 16:22:12,2018-08-14 16:22:24,12.174s,PASSED
maximizeWindow,Chrome 66.0.3359.181,,2018-08-14 16:22:24,2018-08-14 16:22:25,1.169s,PASSED
delay,Chrome 66.0.3359.181,,2018-08-14 16:22:25,2018-08-14 16:22:27,2.026s,PASSED
closeWindowIndex,Chrome 66.0.3359.181,,2018-08-14 16:22:27,2018-08-14 16:22:28,0.103s,PASSED
delay,Chrome 66.0.3359.181,,2018-08-14 16:22:28,2018-08-14 16:22:30,2.002s,PASSED
switchToWindowTitle,Chrome 66.0.3359.181,,2018-08-14 16:22:30,2018-08-14 16:22:30,0.031s,PASSED
"Statement - Expectedpage = ""Dashboard""",Chrome 66.0.3359.181,,2018-08-14 16:22:30,2018-08-14 16:22:30,0.001s,PASSED
setText,Chrome 66.0.3359.181,,2018-08-14 16:22:30,2018-08-14 16:22:30,0.348s,PASSED
setText,Chrome 66.0.3359.181,,2018-08-14 16:22:30,2018-08-14 16:22:31,0.584s,PASSED
click,Chrome 66.0.3359.181,,2018-08-14 16:22:31,2018-08-14 16:22:31,0.145s,PASSED
delay,Chrome 66.0.3359.181,,2018-08-14 16:22:31,2018-08-14 16:22:36,5.002s,PASSED
click,Chrome 66.0.3359.181,,2018-08-14 16:22:36,2018-08-14 16:22:44,8.593s,PASSED
click,Chrome 66.0.3359.181,,2018-08-14 16:22:44,2018-08-14 16:22:45,0.299s,PASSED
delay,Chrome 66.0.3359.181,,2018-08-14 16:22:45,2018-08-14 16:22:48,3.002s,PASSED
setText,Chrome 66.0.3359.181,,2018-08-14 16:22:48,2018-08-14 16:22:48,0.742s,PASSED
click,Chrome 66.0.3359.181,,2018-08-14 16:22:48,2018-08-14 16:22:49,0.258s,PASSED
delay,Chrome 66.0.3359.181,,2018-08-14 16:22:49,2018-08-14 16:22:54,5.002s,PASSED
click,Chrome 66.0.3359.181,,2018-08-14 16:22:54,2018-08-14 16:22:54,0.340s,PASSED
delay,Chrome 66.0.3359.181,,2018-08-14 16:22:54,2018-08-14 16:22:57,3.002s,PASSED
switchToWindowTitle,Chrome 66.0.3359.181,,2018-08-14 16:22:57,2018-08-14 16:23:07,9.605s,PASSED
delay,Chrome 66.0.3359.181,,2018-08-14 16:23:07,2018-08-14 16:23:12,5.003s,PASSED
click,Chrome 66.0.3359.181,,2018-08-14 16:23:12,2018-08-14 16:23:12,0.252s,PASSED
click,Chrome 66.0.3359.181,,2018-08-14 16:23:12,2018-08-14 16:23:21,8.785s,PASSED
click,Chrome 66.0.3359.181,,2018-08-14 16:23:21,2018-08-14 16:23:21,0.279s,PASSED
setText,Chrome 66.0.3359.181,,2018-08-14 16:23:21,2018-08-14 16:23:22,0.691s,PASSED
click,Chrome 66.0.3359.181,,2018-08-14 16:23:22,2018-08-14 16:23:22,0.323s,PASSED
delay,Chrome 66.0.3359.181,,2018-08-14 16:23:22,2018-08-14 16:23:27,5.003s,PASSED
click,Chrome 66.0.3359.181,,2018-08-14 16:23:27,2018-08-14 16:23:27,0.257s,PASSED
delay,Chrome 66.0.3359.181,,2018-08-14 16:23:27,2018-08-14 16:23:30,3.004s,PASSED
setText,Chrome 66.0.3359.181,,2018-08-14 16:23:30,2018-08-14 16:23:32,1.403s,PASSED
click,Chrome 66.0.3359.181,,2018-08-14 16:23:32,2018-08-14 16:23:36,4.820s,PASSED
"Statement - chars = ""abcdefghijklmnopqrstuvwxyz123456789""",Chrome 66.0.3359.181,,2018-08-14 16:23:36,2018-08-14 16:23:36,0.001s,PASSED
click,Chrome 66.0.3359.181,,2018-08-14 16:23:36,2018-08-14 16:23:37,0.406s,PASSED
"Statement - AudioLibraryName1 = """"",Chrome 66.0.3359.181,,2018-08-14 16:23:37,2018-08-14 16:23:37,0.000s,PASSED
"Statement - AudioLibraryName1 = Script1533548849602.randomString((AUTOMATION + chars), 5)",Chrome 66.0.3359.181,,2018-08-14 16:23:37,2018-08-14 16:23:37,0.003s,PASSED
Statement - rand = new java.util.Random(),Chrome 66.0.3359.181,,2018-08-14 16:23:37,2018-08-14 16:23:37,0.007s,PASSED
Statement - sb = new java.lang.StringBuilder(),Chrome 66.0.3359.181,,2018-08-14 16:23:37,2018-08-14 16:23:37,0.013s,PASSED
"Statement - For ([i = 0, i < length, (i++)])",Chrome 66.0.3359.181,,2018-08-14 16:23:37,2018-08-14 16:23:37,0.008s,PASSED
Statement - return sb.toString(),Chrome 66.0.3359.181,,2018-08-14 16:23:37,2018-08-14 16:23:37,0.002s,PASSED
Statement - AudioFile1 = AudioLibraryName1,Chrome 66.0.3359.181,,2018-08-14 16:23:37,2018-08-14 16:23:37,0.001s,PASSED
setText,Chrome 66.0.3359.181,,2018-08-14 16:23:37,2018-08-14 16:23:41,3.733s,PASSED
selectOptionByValue,Chrome 66.0.3359.181,,2018-08-14 16:23:41,2018-08-14 16:23:41,0.530s,PASSED
delay,Chrome 66.0.3359.181,,2018-08-14 16:23:41,2018-08-14 16:23:44,3.002s,PASSED
uploadFile,Chrome 66.0.3359.181,,2018-08-14 16:23:44,2018-08-14 16:23:44,0.152s,PASSED
click,Chrome 66.0.3359.181,,2018-08-14 16:23:44,2018-08-14 16:23:44,0.280s,PASSED
click,Chrome 66.0.3359.181,,2018-08-14 16:23:44,2018-08-14 16:23:49,4.760s,PASSED
"Statement - AudioLibraryName2 = """"",Chrome 66.0.3359.181,,2018-08-14 16:23:49,2018-08-14 16:23:49,0.001s,PASSED
"Statement - AudioLibraryName2 = Script1533548849602.randomString((AUTOMATION + chars), 5)",Chrome 66.0.3359.181,,2018-08-14 16:23:49,2018-08-14 16:23:49,0.001s,PASSED
Statement - rand = new java.util.Random(),Chrome 66.0.3359.181,,2018-08-14 16:23:49,2018-08-14 16:23:49,0.001s,PASSED
Statement - sb = new java.lang.StringBuilder(),Chrome 66.0.3359.181,,2018-08-14 16:23:49,2018-08-14 16:23:49,0.001s,PASSED
"Statement - For ([i = 0, i < length, (i++)])",Chrome 66.0.3359.181,,2018-08-14 16:23:49,2018-08-14 16:23:49,0.006s,PASSED
Statement - return sb.toString(),Chrome 66.0.3359.181,,2018-08-14 16:23:49,2018-08-14 16:23:49,0.001s,PASSED
Statement - AudioFile2 = AudioLibraryName2,Chrome 66.0.3359.181,,2018-08-14 16:23:49,2018-08-14 16:23:49,0.001s,PASSED
setText,Chrome 66.0.3359.181,,2018-08-14 16:23:49,2018-08-14 16:23:53,3.326s,PASSED
selectOptionByValue,Chrome 66.0.3359.181,,2018-08-14 16:23:53,2018-08-14 16:23:53,0.278s,PASSED
delay,Chrome 66.0.3359.181,,2018-08-14 16:23:53,2018-08-14 16:23:56,3.001s,PASSED
uploadFile,Chrome 66.0.3359.181,,2018-08-14 16:23:56,2018-08-14 16:23:56,0.305s,PASSED
click,Chrome 66.0.3359.181,,2018-08-14 16:23:56,2018-08-14 16:23:56,0.149s,PASSED
click,Chrome 66.0.3359.181,,2018-08-14 16:23:56,2018-08-14 16:24:28,31.711s,FAILED
,,,,,,
Test Cases/14_AudioPhrase,Chrome 66.0.3359.181,,2018-08-14 16:24:28,2018-08-14 16:25:18,50.103s,FAILED
delay,Chrome 66.0.3359.181,,2018-08-14 16:24:28,2018-08-14 16:24:31,3.021s,PASSED
switchToWindowTitle,Chrome 66.0.3359.181,,2018-08-14 16:24:31,2018-08-14 16:24:31,0.002s,NOT_RUN
setText,Chrome 66.0.3359.181,,2018-08-14 16:24:31,2018-08-14 16:24:33,1.297s,PASSED
click,Chrome 66.0.3359.181,,2018-08-14 16:24:33,2018-08-14 16:24:35,1.870s,PASSED
click,Chrome 66.0.3359.181,,2018-08-14 16:24:35,2018-08-14 16:24:35,0.472s,PASSED
"Statement - AudioPhraseName = """"",Chrome 66.0.3359.181,,2018-08-14 16:24:35,2018-08-14 16:24:35,0.001s,PASSED
"Statement - chars = ""abcdefghijklmnopqrstuvwxyz123456789""",Chrome 66.0.3359.181,,2018-08-14 16:24:35,2018-08-14 16:24:35,0.000s,PASSED
"Statement - AudioPhraseName = Script1533625158161.randomString((AUTOMATION + chars), 5)",Chrome 66.0.3359.181,,2018-08-14 16:24:35,2018-08-14 16:24:35,0.002s,PASSED
Statement - rand = new java.util.Random(),Chrome 66.0.3359.181,,2018-08-14 16:24:35,2018-08-14 16:24:35,0.001s,PASSED
Statement - sb = new java.lang.StringBuilder(),Chrome 66.0.3359.181,,2018-08-14 16:24:35,2018-08-14 16:24:35,0.001s,PASSED
"Statement - For ([i = 0, i < length, (i++)])",Chrome 66.0.3359.181,,2018-08-14 16:24:35,2018-08-14 16:24:35,0.004s,PASSED
Statement - return sb.toString(),Chrome 66.0.3359.181,,2018-08-14 16:24:35,2018-08-14 16:24:35,0.001s,PASSED
Statement - AudioPhrase = AudioPhraseName,Chrome 66.0.3359.181,,2018-08-14 16:24:35,2018-08-14 16:24:35,0.002s,PASSED
setText,Chrome 66.0.3359.181,,2018-08-14 16:24:35,2018-08-14 16:24:38,3.354s,PASSED
click,Chrome 66.0.3359.181,,2018-08-14 16:24:38,2018-08-14 16:24:38,0.142s,PASSED
click,Chrome 66.0.3359.181,,2018-08-14 16:24:38,2018-08-14 16:24:41,2.629s,PASSED
setText,Chrome 66.0.3359.181,,2018-08-14 16:24:41,2018-08-14 16:24:42,0.570s,PASSED
click,Chrome 66.0.3359.181,,2018-08-14 16:24:42,2018-08-14 16:24:42,0.392s,PASSED
click,Chrome 66.0.3359.181,,2018-08-14 16:24:42,2018-08-14 16:24:44,2.277s,PASSED
click,Chrome 66.0.3359.181,,2018-08-14 16:24:44,2018-08-14 16:24:45,0.151s,PASSED
sendKeys,Chrome 66.0.3359.181,,2018-08-14 16:24:45,2018-08-14 16:25:18,33.613s,FAILED
,,,,,,
Test Cases/99_Logout,Chrome 66.0.3359.181,,2018-08-14 16:25:18,2018-08-14 16:25:34,15.444s,PASSED
delay,Chrome 66.0.3359.181,,2018-08-14 16:25:18,2018-08-14 16:25:23,5.003s,PASSED
click,Chrome 66.0.3359.181,,2018-08-14 16:25:23,2018-08-14 16:25:24,0.407s,PASSED
delay,Chrome 66.0.3359.181,,2018-08-14 16:25:24,2018-08-14 16:25:29,5.002s,PASSED
click,Chrome 66.0.3359.181,,2018-08-14 16:25:29,2018-08-14 16:25:34,4.822s,PASSED
