Suite/Test/Step Name,Browser,Description,Start time,End time,Duration,Status
ServicePackage_Tenant_DID,Chrome 66.0.3359.181,,2018-08-07 19:25:40,2018-08-07 19:32:04,6m - 23.431s,FAILED
,,,,,,
Test Cases/0_Login,Chrome 66.0.3359.181,,2018-08-07 19:25:41,2018-08-07 19:26:04,23.335s,PASSED
openBrowser,Chrome 66.0.3359.181,,2018-08-07 19:25:42,2018-08-07 19:25:46,4.151s,PASSED
navigateToUrl,Chrome 66.0.3359.181,,2018-08-07 19:25:46,2018-08-07 19:25:52,6.537s,PASSED
maximizeWindow,Chrome 66.0.3359.181,,2018-08-07 19:25:52,2018-08-07 19:25:53,1.156s,PASSED
delay,Chrome 66.0.3359.181,,2018-08-07 19:25:53,2018-08-07 19:25:55,2.029s,PASSED
closeWindowIndex,Chrome 66.0.3359.181,,2018-08-07 19:25:55,2018-08-07 19:25:56,0.316s,PASSED
delay,Chrome 66.0.3359.181,,2018-08-07 19:25:56,2018-08-07 19:25:58,2.003s,PASSED
switchToWindowTitle,Chrome 66.0.3359.181,,2018-08-07 19:25:58,2018-08-07 19:25:58,0.191s,PASSED
"Statement - Expectedpage = ""Dashboard""",Chrome 66.0.3359.181,,2018-08-07 19:25:58,2018-08-07 19:25:58,0.002s,PASSED
setText,Chrome 66.0.3359.181,,2018-08-07 19:25:58,2018-08-07 19:25:59,0.647s,PASSED
setText,Chrome 66.0.3359.181,,2018-08-07 19:25:59,2018-08-07 19:25:59,0.541s,PASSED
click,Chrome 66.0.3359.181,,2018-08-07 19:25:59,2018-08-07 19:25:59,0.110s,PASSED
delay,Chrome 66.0.3359.181,,2018-08-07 19:25:59,2018-08-07 19:26:04,5.003s,PASSED
,,,,,,
Test Cases/1_TestCases_ServicePackage,Chrome 66.0.3359.181,,2018-08-07 19:26:04,2018-08-07 19:26:35,30.964s,PASSED
click,Chrome 66.0.3359.181,,2018-08-07 19:26:05,2018-08-07 19:26:05,0.488s,PASSED
click,Chrome 66.0.3359.181,,2018-08-07 19:26:05,2018-08-07 19:26:07,1.875s,PASSED
click,Chrome 66.0.3359.181,,2018-08-07 19:26:07,2018-08-07 19:26:08,0.363s,PASSED
click,Chrome 66.0.3359.181,,2018-08-07 19:26:08,2018-08-07 19:26:10,2.102s,PASSED
click,Chrome 66.0.3359.181,,2018-08-07 19:26:10,2018-08-07 19:26:10,0.446s,PASSED
"Statement - chars = ""abcdefghijklmnopqrstuvwxyz0123456789""",Chrome 66.0.3359.181,,2018-08-07 19:26:10,2018-08-07 19:26:10,0.001s,PASSED
"Statement - ServicePackageName = """"",Chrome 66.0.3359.181,,2018-08-07 19:26:10,2018-08-07 19:26:10,0.001s,PASSED
"Statement - ServicePackageName = Script1532344828195.randomString((AUTOMATION + chars), 5)",Chrome 66.0.3359.181,,2018-08-07 19:26:10,2018-08-07 19:26:10,0.003s,PASSED
Statement - rand = new java.util.Random(),Chrome 66.0.3359.181,,2018-08-07 19:26:10,2018-08-07 19:26:10,0.005s,PASSED
Statement - sb = new java.lang.StringBuilder(),Chrome 66.0.3359.181,,2018-08-07 19:26:10,2018-08-07 19:26:10,0.012s,PASSED
"Statement - For ([i = 0, i < length, (i++)])",Chrome 66.0.3359.181,,2018-08-07 19:26:10,2018-08-07 19:26:10,0.010s,PASSED
Statement - return sb.toString(),Chrome 66.0.3359.181,,2018-08-07 19:26:10,2018-08-07 19:26:10,0.002s,PASSED
Statement - ServicePackage = ServicePackageName,Chrome 66.0.3359.181,,2018-08-07 19:26:10,2018-08-07 19:26:10,0.003s,PASSED
setText,Chrome 66.0.3359.181,,2018-08-07 19:26:10,2018-08-07 19:26:14,3.595s,PASSED
click,Chrome 66.0.3359.181,,2018-08-07 19:26:14,2018-08-07 19:26:14,0.442s,PASSED
click,Chrome 66.0.3359.181,,2018-08-07 19:26:14,2018-08-07 19:26:15,0.384s,PASSED
doubleClick,Chrome 66.0.3359.181,,2018-08-07 19:26:15,2018-08-07 19:26:15,0.340s,PASSED
delay,Chrome 66.0.3359.181,,2018-08-07 19:26:15,2018-08-07 19:26:20,5.044s,PASSED
click,Chrome 66.0.3359.181,,2018-08-07 19:26:20,2018-08-07 19:26:21,0.435s,PASSED
doubleClick,Chrome 66.0.3359.181,,2018-08-07 19:26:21,2018-08-07 19:26:21,0.202s,PASSED
delay,Chrome 66.0.3359.181,,2018-08-07 19:26:21,2018-08-07 19:26:25,4.002s,PASSED
setText,Chrome 66.0.3359.181,,2018-08-07 19:26:25,2018-08-07 19:26:25,0.341s,PASSED
click,Chrome 66.0.3359.181,,2018-08-07 19:26:25,2018-08-07 19:26:25,0.267s,PASSED
doubleClick,Chrome 66.0.3359.181,,2018-08-07 19:26:25,2018-08-07 19:26:26,0.330s,PASSED
delay,Chrome 66.0.3359.181,,2018-08-07 19:26:26,2018-08-07 19:26:28,2.003s,PASSED
setText,Chrome 66.0.3359.181,,2018-08-07 19:26:28,2018-08-07 19:26:28,0.469s,PASSED
click,Chrome 66.0.3359.181,,2018-08-07 19:26:28,2018-08-07 19:26:28,0.156s,PASSED
doubleClick,Chrome 66.0.3359.181,,2018-08-07 19:26:28,2018-08-07 19:26:28,0.153s,PASSED
delay,Chrome 66.0.3359.181,,2018-08-07 19:26:28,2018-08-07 19:26:30,2.001s,PASSED
setText,Chrome 66.0.3359.181,,2018-08-07 19:26:30,2018-08-07 19:26:31,0.549s,PASSED
click,Chrome 66.0.3359.181,,2018-08-07 19:26:31,2018-08-07 19:26:31,0.246s,PASSED
click,Chrome 66.0.3359.181,,2018-08-07 19:26:31,2018-08-07 19:26:34,2.810s,PASSED
setText,Chrome 66.0.3359.181,,2018-08-07 19:26:34,2018-08-07 19:26:35,0.819s,PASSED
click,Chrome 66.0.3359.181,,2018-08-07 19:26:35,2018-08-07 19:26:35,0.201s,PASSED
click,Chrome 66.0.3359.181,,2018-08-07 19:26:35,2018-08-07 19:26:35,0.163s,PASSED
,,,,,,
Test Cases/3_DID_Regular_Number,Chrome 66.0.3359.181,"1) Open Browser Instance. 
2) Enter Given Admin URL in address bar. 
3) Login as Admin
4) Click On DID Inventory In Side Menu Nevigation
5) Click On DID Individual
6) Click On Create Button
7) Select Nuber Type=Regular, Select Type=Number, Enter Number (Number Field Must Be Accepted If Numberic Only), Description= Any text, MRC = Positive Numeric Value
8) Click On search Button And Enter Created DID Number, Number Type= Regular and Click On Search button",2018-08-07 19:26:35,2018-08-07 19:26:55,20.185s,PASSED
"Statement - chars = ""123456789""",Chrome 66.0.3359.181,,2018-08-07 19:26:36,2018-08-07 19:26:36,0.001s,PASSED
"Statement - DIDNumber = """"",Chrome 66.0.3359.181,,2018-08-07 19:26:36,2018-08-07 19:26:36,0.001s,PASSED
"Statement - DIDNumber = Script1532598339424.randomString((12345 + chars), 5)",Chrome 66.0.3359.181,,2018-08-07 19:26:36,2018-08-07 19:26:36,0.002s,PASSED
Statement - rand = new java.util.Random(),Chrome 66.0.3359.181,,2018-08-07 19:26:36,2018-08-07 19:26:36,0.001s,PASSED
Statement - sb = new java.lang.StringBuilder(),Chrome 66.0.3359.181,,2018-08-07 19:26:36,2018-08-07 19:26:36,0.000s,PASSED
"Statement - For ([i = 0, i < length, (i++)])",Chrome 66.0.3359.181,,2018-08-07 19:26:36,2018-08-07 19:26:36,0.007s,PASSED
Statement - return sb.toString(),Chrome 66.0.3359.181,,2018-08-07 19:26:36,2018-08-07 19:26:36,0.001s,PASSED
Statement - DIDNumber = DIDNumber,Chrome 66.0.3359.181,,2018-08-07 19:26:36,2018-08-07 19:26:36,0.001s,PASSED
delay,Chrome 66.0.3359.181,,2018-08-07 19:26:36,2018-08-07 19:26:39,3.032s,PASSED
click,Chrome 66.0.3359.181,,2018-08-07 19:26:39,2018-08-07 19:26:39,0.378s,PASSED
delay,Chrome 66.0.3359.181,,2018-08-07 19:26:39,2018-08-07 19:26:42,3.003s,PASSED
click,Chrome 66.0.3359.181,,2018-08-07 19:26:42,2018-08-07 19:26:46,3.675s,PASSED
click,Chrome 66.0.3359.181,,2018-08-07 19:26:46,2018-08-07 19:26:46,0.439s,PASSED
selectOptionByValue,Chrome 66.0.3359.181,,2018-08-07 19:26:46,2018-08-07 19:26:49,2.409s,PASSED
selectOptionByValue,Chrome 66.0.3359.181,,2018-08-07 19:26:49,2018-08-07 19:26:49,0.424s,PASSED
setText,Chrome 66.0.3359.181,,2018-08-07 19:26:49,2018-08-07 19:26:50,0.455s,PASSED
click,Chrome 66.0.3359.181,,2018-08-07 19:26:50,2018-08-07 19:26:50,0.350s,PASSED
Statement - actual = com.kms.katalon.core.webui.keyword.WebUiBuiltInKeywords.getText(com.kms.katalon.core.testobject.ObjectRepository.findTestObject(Page_Create DID Inventory/div_Number must be an integer.)),Chrome 66.0.3359.181,,2018-08-07 19:26:50,2018-08-07 19:26:51,0.696s,PASSED
"Statement - validation = ""Number must be an integer.""",Chrome 66.0.3359.181,,2018-08-07 19:26:51,2018-08-07 19:26:51,0.000s,PASSED
Statement - If (actual.equals(validation)),Chrome 66.0.3359.181,,2018-08-07 19:26:51,2018-08-07 19:26:51,0.011s,PASSED
setText,Chrome 66.0.3359.181,,2018-08-07 19:26:51,2018-08-07 19:26:51,0.353s,PASSED
setText,Chrome 66.0.3359.181,,2018-08-07 19:26:51,2018-08-07 19:26:51,0.485s,PASSED
click,Chrome 66.0.3359.181,,2018-08-07 19:26:51,2018-08-07 19:26:52,0.085s,PASSED
click,Chrome 66.0.3359.181,,2018-08-07 19:26:52,2018-08-07 19:26:54,2.880s,PASSED
setText,Chrome 66.0.3359.181,,2018-08-07 19:26:54,2018-08-07 19:26:55,0.736s,PASSED
click,Chrome 66.0.3359.181,,2018-08-07 19:26:55,2018-08-07 19:26:55,0.170s,PASSED
Statement - gridDIDNumber = com.kms.katalon.core.webui.keyword.WebUiBuiltInKeywords.getText(com.kms.katalon.core.testobject.ObjectRepository.findTestObject(Page_DID Individual/td_1234567890)),Chrome 66.0.3359.181,,2018-08-07 19:26:55,2018-08-07 19:26:55,0.114s,PASSED
Statement - If (gridDIDNumber.equals(DIDNumber)),Chrome 66.0.3359.181,,2018-08-07 19:26:55,2018-08-07 19:26:55,0.002s,PASSED
,,,,,,
Test Cases/2_CreateTenant,Chrome 66.0.3359.181,,2018-08-07 19:26:55,2018-08-07 19:28:22,1m - 26.906s,PASSED
click,Chrome 66.0.3359.181,,2018-08-07 19:26:56,2018-08-07 19:26:59,3.235s,PASSED
"Statement - Expectedpage = ""Dashboard""",Chrome 66.0.3359.181,,2018-08-07 19:26:59,2018-08-07 19:26:59,0.001s,PASSED
"Statement - chars = ""abcdefghijklmnopqrstuvwxyz123456789""",Chrome 66.0.3359.181,,2018-08-07 19:26:59,2018-08-07 19:26:59,0.001s,PASSED
"Statement - ExpectedTenantName = """"",Chrome 66.0.3359.181,,2018-08-07 19:26:59,2018-08-07 19:26:59,0.001s,PASSED
"Statement - ExpectedTenantName = Script1532436773627.randomString((AUTOMATION + chars), 5)",Chrome 66.0.3359.181,,2018-08-07 19:26:59,2018-08-07 19:26:59,0.002s,PASSED
Statement - rand = new java.util.Random(),Chrome 66.0.3359.181,,2018-08-07 19:26:59,2018-08-07 19:26:59,0.001s,PASSED
Statement - sb = new java.lang.StringBuilder(),Chrome 66.0.3359.181,,2018-08-07 19:26:59,2018-08-07 19:26:59,0.001s,PASSED
"Statement - For ([i = 0, i < length, (i++)])",Chrome 66.0.3359.181,,2018-08-07 19:26:59,2018-08-07 19:26:59,0.005s,PASSED
Statement - return sb.toString(),Chrome 66.0.3359.181,,2018-08-07 19:26:59,2018-08-07 19:26:59,0.001s,PASSED
Statement - TenantName = ExpectedTenantName,Chrome 66.0.3359.181,,2018-08-07 19:26:59,2018-08-07 19:26:59,0.001s,PASSED
click,Chrome 66.0.3359.181,,2018-08-07 19:26:59,2018-08-07 19:27:02,2.937s,PASSED
setText,Chrome 66.0.3359.181,,2018-08-07 19:27:02,2018-08-07 19:27:03,0.447s,PASSED
setText,Chrome 66.0.3359.181,,2018-08-07 19:27:03,2018-08-07 19:27:04,1.345s,PASSED
setText,Chrome 66.0.3359.181,,2018-08-07 19:27:04,2018-08-07 19:27:04,0.554s,PASSED
setEncryptedText,Chrome 66.0.3359.181,,2018-08-07 19:27:04,2018-08-07 19:27:05,0.697s,PASSED
delay,Chrome 66.0.3359.181,,2018-08-07 19:27:05,2018-08-07 19:27:10,5.001s,PASSED
selectOptionByIndex,Chrome 66.0.3359.181,,2018-08-07 19:27:10,2018-08-07 19:27:11,0.687s,PASSED
delay,Chrome 66.0.3359.181,,2018-08-07 19:27:11,2018-08-07 19:27:16,5.002s,PASSED
setText,Chrome 66.0.3359.181,,2018-08-07 19:27:16,2018-08-07 19:27:17,0.880s,PASSED
setText,Chrome 66.0.3359.181,,2018-08-07 19:27:17,2018-08-07 19:27:18,0.916s,PASSED
setText,Chrome 66.0.3359.181,,2018-08-07 19:27:18,2018-08-07 19:27:19,1.057s,PASSED
selectOptionByValue,Chrome 66.0.3359.181,,2018-08-07 19:27:19,2018-08-07 19:27:19,0.647s,PASSED
delay,Chrome 66.0.3359.181,,2018-08-07 19:27:19,2018-08-07 19:27:24,5.002s,PASSED
scrollToElement,Chrome 66.0.3359.181,,2018-08-07 19:27:24,2018-08-07 19:27:24,0.083s,PASSED
selectOptionByLabel,Chrome 66.0.3359.181,,2018-08-07 19:27:24,2018-08-07 19:27:26,1.450s,PASSED
delay,Chrome 66.0.3359.181,,2018-08-07 19:27:26,2018-08-07 19:27:31,5.002s,PASSED
selectOptionByValue,Chrome 66.0.3359.181,,2018-08-07 19:27:31,2018-08-07 19:27:31,0.591s,PASSED
delay,Chrome 66.0.3359.181,,2018-08-07 19:27:31,2018-08-07 19:27:36,5.003s,PASSED
click,Chrome 66.0.3359.181,,2018-08-07 19:27:36,2018-08-07 19:27:37,0.440s,PASSED
delay,Chrome 66.0.3359.181,,2018-08-07 19:27:37,2018-08-07 19:27:42,5.002s,PASSED
setText,Chrome 66.0.3359.181,,2018-08-07 19:27:42,2018-08-07 19:27:43,1.121s,PASSED
click,Chrome 66.0.3359.181,,2018-08-07 19:27:43,2018-08-07 19:27:43,0.175s,PASSED
click,Chrome 66.0.3359.181,,2018-08-07 19:27:43,2018-08-07 19:27:44,0.419s,PASSED
click,Chrome 66.0.3359.181,,2018-08-07 19:27:44,2018-08-07 19:27:44,0.355s,PASSED
scrollToElement,Chrome 66.0.3359.181,,2018-08-07 19:27:44,2018-08-07 19:27:47,2.548s,PASSED
click,Chrome 66.0.3359.181,,2018-08-07 19:27:47,2018-08-07 19:27:49,2.634s,PASSED
click,Chrome 66.0.3359.181,,2018-08-07 19:27:49,2018-08-07 19:27:49,0.002s,NOT_RUN
click,Chrome 66.0.3359.181,,2018-08-07 19:27:49,2018-08-07 19:27:49,0.252s,PASSED
setText,Chrome 66.0.3359.181,,2018-08-07 19:27:49,2018-08-07 19:27:50,0.851s,PASSED
click,Chrome 66.0.3359.181,,2018-08-07 19:27:50,2018-08-07 19:27:50,0.150s,PASSED
click,Chrome 66.0.3359.181,,2018-08-07 19:27:50,2018-08-07 19:27:50,0.000s,NOT_RUN
click,Chrome 66.0.3359.181,,2018-08-07 19:27:50,2018-08-07 19:27:51,0.536s,PASSED
delay,Chrome 66.0.3359.181,,2018-08-07 19:27:51,2018-08-07 19:27:54,3.001s,PASSED
switchToWindowTitle,Chrome 66.0.3359.181,,2018-08-07 19:27:54,2018-08-07 19:28:02,8.247s,PASSED
delay,Chrome 66.0.3359.181,,2018-08-07 19:28:02,2018-08-07 19:28:05,3.001s,PASSED
Statement - ActualTenantName = com.kms.katalon.core.webui.keyword.WebUiBuiltInKeywords.getText(com.kms.katalon.core.testobject.ObjectRepository.findTestObject(Object Repository/Page_Admin/h4_63)),Chrome 66.0.3359.181,,2018-08-07 19:28:05,2018-08-07 19:28:05,0.049s,PASSED
Statement - If (ExpectedTenantName.equals(ActualTenantName)),Chrome 66.0.3359.181,,2018-08-07 19:28:05,2018-08-07 19:28:05,0.002s,PASSED
delay,Chrome 66.0.3359.181,,2018-08-07 19:28:05,2018-08-07 19:28:08,3.001s,PASSED
click,Chrome 66.0.3359.181,,2018-08-07 19:28:08,2018-08-07 19:28:09,0.333s,PASSED
delay,Chrome 66.0.3359.181,,2018-08-07 19:28:09,2018-08-07 19:28:12,3.001s,PASSED
click,Chrome 66.0.3359.181,,2018-08-07 19:28:12,2018-08-07 19:28:16,4.527s,PASSED
delay,Chrome 66.0.3359.181,,2018-08-07 19:28:16,2018-08-07 19:28:19,3.002s,PASSED
closeWindowIndex,Chrome 66.0.3359.181,,2018-08-07 19:28:19,2018-08-07 19:28:19,0.206s,PASSED
switchToWindowTitle,Chrome 66.0.3359.181,,2018-08-07 19:28:19,2018-08-07 19:28:19,0.062s,PASSED
delay,Chrome 66.0.3359.181,,2018-08-07 19:28:19,2018-08-07 19:28:22,3.001s,PASSED
,,,,,,
Test Cases/11_Verify_AssignedDID_ToTenant,Chrome 66.0.3359.181,Verify Assigned DID shows properly in Tenant,2018-08-07 19:28:22,2018-08-07 19:28:58,36.052s,PASSED
click,Chrome 66.0.3359.181,,2018-08-07 19:28:23,2018-08-07 19:28:23,0.001s,NOT_RUN
click,Chrome 66.0.3359.181,,2018-08-07 19:28:23,2018-08-07 19:28:23,0.001s,NOT_RUN
setText,Chrome 66.0.3359.181,,2018-08-07 19:28:23,2018-08-07 19:28:23,0.001s,NOT_RUN
click,Chrome 66.0.3359.181,,2018-08-07 19:28:23,2018-08-07 19:28:23,0.001s,NOT_RUN
delay,Chrome 66.0.3359.181,,2018-08-07 19:28:23,2018-08-07 19:28:26,3.013s,PASSED
click,Chrome 66.0.3359.181,,2018-08-07 19:28:26,2018-08-07 19:28:26,0.001s,NOT_RUN
click,Chrome 66.0.3359.181,,2018-08-07 19:28:26,2018-08-07 19:28:26,0.449s,PASSED
delay,Chrome 66.0.3359.181,,2018-08-07 19:28:26,2018-08-07 19:28:29,3.001s,PASSED
switchToWindowTitle,Chrome 66.0.3359.181,,2018-08-07 19:28:29,2018-08-07 19:28:31,1.816s,PASSED
delay,Chrome 66.0.3359.181,,2018-08-07 19:28:31,2018-08-07 19:28:34,3.003s,PASSED
switchToWindowTitle,Chrome 66.0.3359.181,,2018-08-07 19:28:34,2018-08-07 19:28:34,0.002s,NOT_RUN
click,Chrome 66.0.3359.181,,2018-08-07 19:28:34,2018-08-07 19:28:40,6.424s,PASSED
click,Chrome 66.0.3359.181,,2018-08-07 19:28:40,2018-08-07 19:28:41,0.484s,PASSED
setText,Chrome 66.0.3359.181,,2018-08-07 19:28:41,2018-08-07 19:28:41,0.383s,PASSED
click,Chrome 66.0.3359.181,,2018-08-07 19:28:41,2018-08-07 19:28:42,0.383s,PASSED
Statement - getDIDName = com.kms.katalon.core.webui.keyword.WebUiBuiltInKeywords.getText(com.kms.katalon.core.testobject.ObjectRepository.findTestObject(Page_DID/td_2674991212)),Chrome 66.0.3359.181,,2018-08-07 19:28:42,2018-08-07 19:28:42,0.204s,PASSED
Statement - If (getDIDName.equals(DIDNumber)),Chrome 66.0.3359.181,,2018-08-07 19:28:42,2018-08-07 19:28:42,0.001s,PASSED
delay,Chrome 66.0.3359.181,,2018-08-07 19:28:42,2018-08-07 19:28:45,3.001s,PASSED
click,Chrome 66.0.3359.181,,2018-08-07 19:28:45,2018-08-07 19:28:45,0.115s,PASSED
delay,Chrome 66.0.3359.181,,2018-08-07 19:28:45,2018-08-07 19:28:48,3.003s,PASSED
click,Chrome 66.0.3359.181,,2018-08-07 19:28:48,2018-08-07 19:28:50,2.070s,PASSED
delay,Chrome 66.0.3359.181,,2018-08-07 19:28:50,2018-08-07 19:28:53,3.002s,PASSED
closeWindowIndex,Chrome 66.0.3359.181,,2018-08-07 19:28:53,2018-08-07 19:28:53,0.179s,PASSED
delay,Chrome 66.0.3359.181,,2018-08-07 19:28:53,2018-08-07 19:28:55,2.002s,PASSED
switchToWindowTitle,Chrome 66.0.3359.181,,2018-08-07 19:28:55,2018-08-07 19:28:55,0.178s,PASSED
delay,Chrome 66.0.3359.181,,2018-08-07 19:28:55,2018-08-07 19:28:58,3.002s,PASSED
,,,,,,
Test Cases/12_CreateUser,Chrome 66.0.3359.181,"Login into tenant, create user.",2018-08-07 19:28:58,2018-08-07 19:29:55,56.814s,PASSED
click,Chrome 66.0.3359.181,,2018-08-07 19:28:59,2018-08-07 19:29:02,3.000s,PASSED
click,Chrome 66.0.3359.181,,2018-08-07 19:29:02,2018-08-07 19:29:02,0.164s,PASSED
delay,Chrome 66.0.3359.181,,2018-08-07 19:29:02,2018-08-07 19:29:05,3.038s,PASSED
setText,Chrome 66.0.3359.181,,2018-08-07 19:29:05,2018-08-07 19:29:06,0.580s,PASSED
click,Chrome 66.0.3359.181,,2018-08-07 19:29:06,2018-08-07 19:29:06,0.169s,PASSED
click,Chrome 66.0.3359.181,,2018-08-07 19:29:06,2018-08-07 19:29:07,0.793s,PASSED
delay,Chrome 66.0.3359.181,,2018-08-07 19:29:07,2018-08-07 19:29:10,3.001s,PASSED
switchToWindowTitle,Chrome 66.0.3359.181,,2018-08-07 19:29:10,2018-08-07 19:29:11,1.739s,PASSED
click,Chrome 66.0.3359.181,,2018-08-07 19:29:11,2018-08-07 19:29:12,0.398s,PASSED
click,Chrome 66.0.3359.181,,2018-08-07 19:29:12,2018-08-07 19:29:18,6.350s,PASSED
click,Chrome 66.0.3359.181,,2018-08-07 19:29:18,2018-08-07 19:29:19,0.370s,PASSED
delay,Chrome 66.0.3359.181,,2018-08-07 19:29:19,2018-08-07 19:29:21,2.003s,PASSED
"Statement - chars = ""abcdefghijklmnopqrstuvwxyz0123456789""",Chrome 66.0.3359.181,,2018-08-07 19:29:21,2018-08-07 19:29:21,0.001s,PASSED
"Statement - userName = """"",Chrome 66.0.3359.181,,2018-08-07 19:29:21,2018-08-07 19:29:21,0.000s,PASSED
"Statement - userName = Script1533536280670.randomString((AUTOMATION + chars), 5)",Chrome 66.0.3359.181,,2018-08-07 19:29:21,2018-08-07 19:29:21,0.003s,PASSED
Statement - rand = new java.util.Random(),Chrome 66.0.3359.181,,2018-08-07 19:29:21,2018-08-07 19:29:21,0.002s,PASSED
Statement - sb = new java.lang.StringBuilder(),Chrome 66.0.3359.181,,2018-08-07 19:29:21,2018-08-07 19:29:21,0.006s,PASSED
"Statement - For ([i = 0, i < length, (i++)])",Chrome 66.0.3359.181,,2018-08-07 19:29:21,2018-08-07 19:29:21,0.007s,PASSED
Statement - return sb.toString(),Chrome 66.0.3359.181,,2018-08-07 19:29:21,2018-08-07 19:29:21,0.002s,PASSED
Statement - ExtensionName = userName,Chrome 66.0.3359.181,,2018-08-07 19:29:21,2018-08-07 19:29:21,0.001s,PASSED
setText,Chrome 66.0.3359.181,,2018-08-07 19:29:21,2018-08-07 19:29:25,4.314s,PASSED
setText,Chrome 66.0.3359.181,,2018-08-07 19:29:25,2018-08-07 19:29:26,0.582s,PASSED
setEncryptedText,Chrome 66.0.3359.181,,2018-08-07 19:29:26,2018-08-07 19:29:26,0.822s,PASSED
Statement - rand = new java.util.Random(),Chrome 66.0.3359.181,,2018-08-07 19:29:26,2018-08-07 19:29:26,0.001s,PASSED
Statement - ExtensionNumberInt = rand.nextInt(99999999),Chrome 66.0.3359.181,,2018-08-07 19:29:26,2018-08-07 19:29:26,0.001s,PASSED
Statement - ExtensionNumber = ExtensionNumberInt.toString(),Chrome 66.0.3359.181,,2018-08-07 19:29:26,2018-08-07 19:29:26,0.003s,PASSED
setText,Chrome 66.0.3359.181,,2018-08-07 19:29:26,2018-08-07 19:29:27,0.474s,PASSED
delay,Chrome 66.0.3359.181,,2018-08-07 19:29:27,2018-08-07 19:29:29,2.001s,PASSED
scrollToElement,Chrome 66.0.3359.181,,2018-08-07 19:29:29,2018-08-07 19:29:29,0.204s,PASSED
delay,Chrome 66.0.3359.181,,2018-08-07 19:29:29,2018-08-07 19:29:30,1.002s,PASSED
click,Chrome 66.0.3359.181,,2018-08-07 19:29:30,2018-08-07 19:29:30,0.286s,PASSED
click,Chrome 66.0.3359.181,,2018-08-07 19:29:30,2018-08-07 19:29:37,6.277s,PASSED
setText,Chrome 66.0.3359.181,,2018-08-07 19:29:37,2018-08-07 19:29:37,0.652s,PASSED
click,Chrome 66.0.3359.181,,2018-08-07 19:29:37,2018-08-07 19:29:37,0.162s,PASSED
Statement - firstlastname = com.kms.katalon.core.webui.keyword.WebUiBuiltInKeywords.getText(com.kms.katalon.core.testobject.ObjectRepository.findTestObject(Object Repository/Page_User/td_TestUser LastName)),Chrome 66.0.3359.181,,2018-08-07 19:29:37,2018-08-07 19:29:38,0.169s,PASSED
Statement - If (firstlastname.contains(userName)),Chrome 66.0.3359.181,,2018-08-07 19:29:38,2018-08-07 19:29:38,0.007s,PASSED
delay,Chrome 66.0.3359.181,,2018-08-07 19:29:38,2018-08-07 19:29:41,3.001s,PASSED
click,Chrome 66.0.3359.181,,2018-08-07 19:29:41,2018-08-07 19:29:43,2.150s,PASSED
delay,Chrome 66.0.3359.181,,2018-08-07 19:29:43,2018-08-07 19:29:46,3.002s,PASSED
click,Chrome 66.0.3359.181,,2018-08-07 19:29:46,2018-08-07 19:29:49,3.094s,PASSED
delay,Chrome 66.0.3359.181,,2018-08-07 19:29:49,2018-08-07 19:29:52,3.002s,PASSED
closeWindowIndex,Chrome 66.0.3359.181,,2018-08-07 19:29:52,2018-08-07 19:29:52,0.241s,PASSED
switchToWindowTitle,Chrome 66.0.3359.181,,2018-08-07 19:29:52,2018-08-07 19:29:52,0.182s,PASSED
delay,Chrome 66.0.3359.181,,2018-08-07 19:29:52,2018-08-07 19:29:55,3.002s,PASSED
,,,,,,
Test Cases/13_AudioLibrary,Chrome 66.0.3359.181,,2018-08-07 19:29:55,2018-08-07 19:31:50,1m - 54.837s,FAILED
delay,Chrome 66.0.3359.181,,2018-08-07 19:29:56,2018-08-07 19:29:56,0.001s,NOT_RUN
openBrowser,Chrome 66.0.3359.181,,2018-08-07 19:29:56,2018-08-07 19:29:56,0.000s,NOT_RUN
navigateToUrl,Chrome 66.0.3359.181,,2018-08-07 19:29:56,2018-08-07 19:29:56,0.000s,NOT_RUN
maximizeWindow,Chrome 66.0.3359.181,,2018-08-07 19:29:56,2018-08-07 19:29:56,0.000s,NOT_RUN
delay,Chrome 66.0.3359.181,,2018-08-07 19:29:56,2018-08-07 19:29:56,0.000s,NOT_RUN
closeWindowIndex,Chrome 66.0.3359.181,,2018-08-07 19:29:56,2018-08-07 19:29:56,0.000s,NOT_RUN
delay,Chrome 66.0.3359.181,,2018-08-07 19:29:56,2018-08-07 19:29:56,0.001s,NOT_RUN
switchToWindowTitle,Chrome 66.0.3359.181,,2018-08-07 19:29:56,2018-08-07 19:29:56,0.001s,NOT_RUN
"Statement - Expectedpage = ""Dashboard""",Chrome 66.0.3359.181,,2018-08-07 19:29:56,2018-08-07 19:29:56,0.000s,NOT_RUN
setText,Chrome 66.0.3359.181,,2018-08-07 19:29:56,2018-08-07 19:29:56,0.000s,NOT_RUN
setText,Chrome 66.0.3359.181,,2018-08-07 19:29:56,2018-08-07 19:29:56,0.001s,NOT_RUN
click,Chrome 66.0.3359.181,,2018-08-07 19:29:56,2018-08-07 19:29:56,0.001s,NOT_RUN
delay,Chrome 66.0.3359.181,,2018-08-07 19:29:56,2018-08-07 19:30:01,5.001s,PASSED
click,Chrome 66.0.3359.181,,2018-08-07 19:30:01,2018-08-07 19:30:04,2.688s,PASSED
click,Chrome 66.0.3359.181,,2018-08-07 19:30:04,2018-08-07 19:30:04,0.183s,PASSED
delay,Chrome 66.0.3359.181,,2018-08-07 19:30:04,2018-08-07 19:30:07,3.001s,PASSED
setText,Chrome 66.0.3359.181,,2018-08-07 19:30:07,2018-08-07 19:30:07,0.464s,PASSED
click,Chrome 66.0.3359.181,,2018-08-07 19:30:07,2018-08-07 19:30:08,0.491s,PASSED
delay,Chrome 66.0.3359.181,,2018-08-07 19:30:08,2018-08-07 19:30:13,5.001s,PASSED
click,Chrome 66.0.3359.181,,2018-08-07 19:30:13,2018-08-07 19:30:13,0.407s,PASSED
delay,Chrome 66.0.3359.181,,2018-08-07 19:30:13,2018-08-07 19:30:16,3.000s,PASSED
switchToWindowTitle,Chrome 66.0.3359.181,,2018-08-07 19:30:16,2018-08-07 19:30:18,1.915s,PASSED
delay,Chrome 66.0.3359.181,,2018-08-07 19:30:18,2018-08-07 19:30:23,5.002s,PASSED
click,Chrome 66.0.3359.181,,2018-08-07 19:30:23,2018-08-07 19:30:23,0.294s,PASSED
click,Chrome 66.0.3359.181,,2018-08-07 19:30:23,2018-08-07 19:30:28,4.568s,PASSED
click,Chrome 66.0.3359.181,,2018-08-07 19:30:28,2018-08-07 19:30:28,0.310s,PASSED
setText,Chrome 66.0.3359.181,,2018-08-07 19:30:28,2018-08-07 19:30:29,0.487s,PASSED
click,Chrome 66.0.3359.181,,2018-08-07 19:30:29,2018-08-07 19:30:29,0.348s,PASSED
delay,Chrome 66.0.3359.181,,2018-08-07 19:30:29,2018-08-07 19:30:34,5.001s,PASSED
click,Chrome 66.0.3359.181,,2018-08-07 19:30:34,2018-08-07 19:30:35,0.885s,PASSED
delay,Chrome 66.0.3359.181,,2018-08-07 19:30:35,2018-08-07 19:30:38,3.002s,PASSED
setText,Chrome 66.0.3359.181,,2018-08-07 19:30:38,2018-08-07 19:30:39,1.244s,PASSED
click,Chrome 66.0.3359.181,,2018-08-07 19:30:39,2018-08-07 19:30:41,2.335s,PASSED
"Statement - chars = ""abcdefghijklmnopqrstuvwxyz123456789""",Chrome 66.0.3359.181,,2018-08-07 19:30:41,2018-08-07 19:30:41,0.001s,PASSED
click,Chrome 66.0.3359.181,,2018-08-07 19:30:41,2018-08-07 19:30:42,0.429s,PASSED
"Statement - AudioLibraryName1 = """"",Chrome 66.0.3359.181,,2018-08-07 19:30:42,2018-08-07 19:30:42,0.001s,PASSED
"Statement - AudioLibraryName1 = Script1533548849602.randomString((AUTOMATION + chars), 5)",Chrome 66.0.3359.181,,2018-08-07 19:30:42,2018-08-07 19:30:42,0.002s,PASSED
Statement - rand = new java.util.Random(),Chrome 66.0.3359.181,,2018-08-07 19:30:42,2018-08-07 19:30:42,0.001s,PASSED
Statement - sb = new java.lang.StringBuilder(),Chrome 66.0.3359.181,,2018-08-07 19:30:42,2018-08-07 19:30:42,0.001s,PASSED
"Statement - For ([i = 0, i < length, (i++)])",Chrome 66.0.3359.181,,2018-08-07 19:30:42,2018-08-07 19:30:42,0.006s,PASSED
Statement - return sb.toString(),Chrome 66.0.3359.181,,2018-08-07 19:30:42,2018-08-07 19:30:42,0.001s,PASSED
Statement - AudioFile1 = AudioLibraryName1,Chrome 66.0.3359.181,,2018-08-07 19:30:42,2018-08-07 19:30:42,0.001s,PASSED
setText,Chrome 66.0.3359.181,,2018-08-07 19:30:42,2018-08-07 19:30:45,3.344s,PASSED
selectOptionByValue,Chrome 66.0.3359.181,,2018-08-07 19:30:45,2018-08-07 19:30:46,0.539s,PASSED
delay,Chrome 66.0.3359.181,,2018-08-07 19:30:46,2018-08-07 19:30:49,3.002s,PASSED
uploadFile,Chrome 66.0.3359.181,,2018-08-07 19:30:49,2018-08-07 19:30:49,0.088s,PASSED
click,Chrome 66.0.3359.181,,2018-08-07 19:30:49,2018-08-07 19:30:49,0.582s,PASSED
click,Chrome 66.0.3359.181,,2018-08-07 19:30:49,2018-08-07 19:30:55,5.192s,PASSED
"Statement - AudioLibraryName2 = """"",Chrome 66.0.3359.181,,2018-08-07 19:30:55,2018-08-07 19:30:55,0.001s,PASSED
"Statement - AudioLibraryName2 = Script1533548849602.randomString((AUTOMATION + chars), 5)",Chrome 66.0.3359.181,,2018-08-07 19:30:55,2018-08-07 19:30:55,0.000s,PASSED
Statement - rand = new java.util.Random(),Chrome 66.0.3359.181,,2018-08-07 19:30:55,2018-08-07 19:30:55,0.000s,PASSED
Statement - sb = new java.lang.StringBuilder(),Chrome 66.0.3359.181,,2018-08-07 19:30:55,2018-08-07 19:30:55,0.001s,PASSED
"Statement - For ([i = 0, i < length, (i++)])",Chrome 66.0.3359.181,,2018-08-07 19:30:55,2018-08-07 19:30:55,0.004s,PASSED
Statement - return sb.toString(),Chrome 66.0.3359.181,,2018-08-07 19:30:55,2018-08-07 19:30:55,0.001s,PASSED
Statement - AudioFile2 = AudioLibraryName2,Chrome 66.0.3359.181,,2018-08-07 19:30:55,2018-08-07 19:30:55,0.001s,PASSED
setText,Chrome 66.0.3359.181,,2018-08-07 19:30:55,2018-08-07 19:30:58,3.060s,PASSED
selectOptionByValue,Chrome 66.0.3359.181,,2018-08-07 19:30:58,2018-08-07 19:30:58,0.547s,PASSED
delay,Chrome 66.0.3359.181,,2018-08-07 19:30:58,2018-08-07 19:31:01,3.002s,PASSED
uploadFile,Chrome 66.0.3359.181,,2018-08-07 19:31:01,2018-08-07 19:31:01,0.085s,PASSED
click,Chrome 66.0.3359.181,,2018-08-07 19:31:01,2018-08-07 19:31:02,0.630s,PASSED
click,Chrome 66.0.3359.181,,2018-08-07 19:31:02,2018-08-07 19:31:08,5.501s,PASSED
setText,Chrome 66.0.3359.181,,2018-08-07 19:31:08,2018-08-07 19:31:08,0.914s,PASSED
click,Chrome 66.0.3359.181,,2018-08-07 19:31:08,2018-08-07 19:31:09,0.117s,PASSED
delay,Chrome 66.0.3359.181,,2018-08-07 19:31:09,2018-08-07 19:31:12,3.002s,PASSED
Statement - audioName = com.kms.katalon.core.webui.keyword.WebUiBuiltInKeywords.getText(com.kms.katalon.core.testobject.ObjectRepository.findTestObject(Object Repository/Page_Audio Library/td_TestAudio.mp3)),Chrome 66.0.3359.181,,2018-08-07 19:31:12,2018-08-07 19:31:12,0.133s,PASSED
Statement - println(audioName),Chrome 66.0.3359.181,,2018-08-07 19:31:12,2018-08-07 19:31:12,0.010s,PASSED
Statement - println(AudioLibraryName1),Chrome 66.0.3359.181,,2018-08-07 19:31:12,2018-08-07 19:31:12,0.000s,PASSED
Statement - If (audioName.contains(AudioLibraryName1)),Chrome 66.0.3359.181,,2018-08-07 19:31:12,2018-08-07 19:31:12,0.002s,PASSED
delay,Chrome 66.0.3359.181,,2018-08-07 19:31:12,2018-08-07 19:31:14,2.001s,PASSED
click,Chrome 66.0.3359.181,,2018-08-07 19:31:14,2018-08-07 19:31:16,2.209s,PASSED
delay,Chrome 66.0.3359.181,,2018-08-07 19:31:16,2018-08-07 19:31:18,2.001s,PASSED
click,Chrome 66.0.3359.181,,2018-08-07 19:31:18,2018-08-07 19:31:50,32.200s,FAILED
,,,,,,
Test Cases/99_Logout,Chrome 66.0.3359.181,,2018-08-07 19:31:50,2018-08-07 19:32:03,12.593s,PASSED
delay,Chrome 66.0.3359.181,,2018-08-07 19:31:50,2018-08-07 19:31:55,5.003s,PASSED
click,Chrome 66.0.3359.181,,2018-08-07 19:31:55,2018-08-07 19:31:56,0.468s,PASSED
delay,Chrome 66.0.3359.181,,2018-08-07 19:31:56,2018-08-07 19:32:01,5.001s,PASSED
click,Chrome 66.0.3359.181,,2018-08-07 19:32:01,2018-08-07 19:32:03,1.820s,PASSED
