Suite/Test/Step Name,Browser,Description,Start time,End time,Duration,Status
ServicePackage_Tenant_DID,Chrome 66.0.3359.181,,2018-08-03 16:26:25,2018-08-03 16:27:34,1m - 8.975s,FAILED
,,,,,,
Test Cases/0_Login,Chrome 66.0.3359.181,,2018-08-03 16:26:26,2018-08-03 16:26:48,22.193s,PASSED
openBrowser,Chrome 66.0.3359.181,,2018-08-03 16:26:26,2018-08-03 16:26:31,5.093s,PASSED
navigateToUrl,Chrome 66.0.3359.181,,2018-08-03 16:26:31,2018-08-03 16:26:40,8.950s,PASSED
maximizeWindow,Chrome 66.0.3359.181,,2018-08-03 16:26:40,2018-08-03 16:26:41,1.203s,PASSED
"Statement - Expectedpage = ""Dashboard""",Chrome 66.0.3359.181,,2018-08-03 16:26:41,2018-08-03 16:26:41,0.003s,PASSED
setText,Chrome 66.0.3359.181,,2018-08-03 16:26:41,2018-08-03 16:26:42,0.516s,PASSED
setText,Chrome 66.0.3359.181,,2018-08-03 16:26:42,2018-08-03 16:26:42,0.426s,PASSED
click,Chrome 66.0.3359.181,,2018-08-03 16:26:42,2018-08-03 16:26:43,0.233s,PASSED
delay,Chrome 66.0.3359.181,,2018-08-03 16:26:43,2018-08-03 16:26:48,5.057s,PASSED
,,,,,,
Test Cases/6_DID_TollFree_Range,Chrome 66.0.3359.181,"1) Open Browser Instance. 
2) Enter Given Admin URL in address bar. 
3) Login as Admin
4) Click On DID Inventory In Side Menu Nevigation
5) Click On DID Individual
6) Click On Create Button
7) Select Nuber Type=Regular, Select Type=Number, Enter Number (Number Field Must Be Accepted If Numberic Only), Description= Any text, MRC = Positive Numeric Value
8) Click On search Button And Enter Created DID Number, Number Type= Regular and Click On Search button",2018-08-03 16:26:48,2018-08-03 16:27:16,28.646s,PASSED
click,Chrome 66.0.3359.181,,2018-08-03 16:26:48,2018-08-03 16:26:52,4.013s,PASSED
delay,Chrome 66.0.3359.181,,2018-08-03 16:26:52,2018-08-03 16:26:55,3.005s,PASSED
click,Chrome 66.0.3359.181,,2018-08-03 16:26:55,2018-08-03 16:27:01,6.021s,PASSED
click,Chrome 66.0.3359.181,,2018-08-03 16:27:01,2018-08-03 16:27:02,0.373s,PASSED
selectOptionByValue,Chrome 66.0.3359.181,,2018-08-03 16:27:02,2018-08-03 16:27:04,2.747s,PASSED
selectOptionByValue,Chrome 66.0.3359.181,,2018-08-03 16:27:04,2018-08-03 16:27:05,0.427s,PASSED
Statement - i = <not implemented yet for class: org.codehaus.groovy.ast.expr.EmptyExpression>,Chrome 66.0.3359.181,,2018-08-03 16:27:05,2018-08-03 16:27:05,0.002s,PASSED
Statement - FromNumberGreter = <not implemented yet for class: org.codehaus.groovy.ast.expr.EmptyExpression>,Chrome 66.0.3359.181,,2018-08-03 16:27:05,2018-08-03 16:27:05,0.002s,PASSED
Statement - FromNumber = <not implemented yet for class: org.codehaus.groovy.ast.expr.EmptyExpression>,Chrome 66.0.3359.181,,2018-08-03 16:27:05,2018-08-03 16:27:05,0.002s,PASSED
Statement - rand = new java.util.Random(),Chrome 66.0.3359.181,,2018-08-03 16:27:05,2018-08-03 16:27:05,0.010s,PASSED
Statement - FromNumber = rand.nextInt(99999999),Chrome 66.0.3359.181,,2018-08-03 16:27:05,2018-08-03 16:27:05,0.004s,PASSED
Statement - FromNumberGreter = FromNumber + 2,Chrome 66.0.3359.181,,2018-08-03 16:27:05,2018-08-03 16:27:05,0.002s,PASSED
Statement - FromNumberGreter1 = FromNumberGreter.toString(),Chrome 66.0.3359.181,,2018-08-03 16:27:05,2018-08-03 16:27:05,0.003s,PASSED
Statement - FromNumber1 = FromNumber.toString(),Chrome 66.0.3359.181,,2018-08-03 16:27:05,2018-08-03 16:27:05,0.003s,PASSED
Statement - DIDFrom = FromNumber1,Chrome 66.0.3359.181,,2018-08-03 16:27:05,2018-08-03 16:27:05,0.003s,PASSED
Statement - DIDTo = FromNumberGreter1,Chrome 66.0.3359.181,,2018-08-03 16:27:05,2018-08-03 16:27:05,0.002s,PASSED
Statement - println(DIDFrom),Chrome 66.0.3359.181,,2018-08-03 16:27:05,2018-08-03 16:27:05,0.006s,PASSED
setText,Chrome 66.0.3359.181,,2018-08-03 16:27:05,2018-08-03 16:27:05,0.446s,PASSED
setText,Chrome 66.0.3359.181,,2018-08-03 16:27:05,2018-08-03 16:27:06,0.373s,PASSED
click,Chrome 66.0.3359.181,,2018-08-03 16:27:06,2018-08-03 16:27:06,0.210s,PASSED
"Statement - ToValidationExpected = ""To must be greater than or equal to ""From"".""",Chrome 66.0.3359.181,,2018-08-03 16:27:06,2018-08-03 16:27:06,0.002s,PASSED
Statement - ToActual = com.kms.katalon.core.webui.keyword.WebUiBuiltInKeywords.getText(com.kms.katalon.core.testobject.ObjectRepository.findTestObject(Object Repository/Page_Create DID Inventory/div_To must be greater than or)),Chrome 66.0.3359.181,,2018-08-03 16:27:06,2018-08-03 16:27:07,0.637s,PASSED
Statement - If (ToActual.equals(ToValidationExpected)),Chrome 66.0.3359.181,,2018-08-03 16:27:07,2018-08-03 16:27:07,0.015s,PASSED
setText,Chrome 66.0.3359.181,,2018-08-03 16:27:07,2018-08-03 16:27:07,0.290s,PASSED
click,Chrome 66.0.3359.181,,2018-08-03 16:27:07,2018-08-03 16:27:07,0.113s,PASSED
delay,Chrome 66.0.3359.181,,2018-08-03 16:27:07,2018-08-03 16:27:09,2.016s,PASSED
Statement - actual = com.kms.katalon.core.webui.keyword.WebUiBuiltInKeywords.getText(com.kms.katalon.core.testobject.ObjectRepository.findTestObject(Object Repository/Page_Create DID Inventory/div_from_must_be_integer)),Chrome 66.0.3359.181,,2018-08-03 16:27:09,2018-08-03 16:27:09,0.100s,PASSED
"Statement - validation = ""From must be an integer.""",Chrome 66.0.3359.181,,2018-08-03 16:27:09,2018-08-03 16:27:09,0.000s,PASSED
Statement - If (actual.equals(validation)),Chrome 66.0.3359.181,,2018-08-03 16:27:09,2018-08-03 16:27:09,0.000s,PASSED
setText,Chrome 66.0.3359.181,,2018-08-03 16:27:09,2018-08-03 16:27:09,0.306s,PASSED
setText,Chrome 66.0.3359.181,,2018-08-03 16:27:09,2018-08-03 16:27:10,0.294s,PASSED
setText,Chrome 66.0.3359.181,,2018-08-03 16:27:10,2018-08-03 16:27:10,0.314s,PASSED
click,Chrome 66.0.3359.181,,2018-08-03 16:27:10,2018-08-03 16:27:10,0.125s,PASSED
delay,Chrome 66.0.3359.181,,2018-08-03 16:27:10,2018-08-03 16:27:15,5.004s,PASSED
click,Chrome 66.0.3359.181,,2018-08-03 16:27:15,2018-08-03 16:27:15,0.231s,PASSED
setText,Chrome 66.0.3359.181,,2018-08-03 16:27:15,2018-08-03 16:27:16,0.604s,PASSED
click,Chrome 66.0.3359.181,,2018-08-03 16:27:16,2018-08-03 16:27:16,0.226s,PASSED
Statement - gridDIDNumber = com.kms.katalon.core.webui.keyword.WebUiBuiltInKeywords.getText(com.kms.katalon.core.testobject.ObjectRepository.findTestObject(Object Repository/Page_DID Individual/td_1234567890)),Chrome 66.0.3359.181,,2018-08-03 16:27:16,2018-08-03 16:27:16,0.116s,PASSED
Statement - println(gridDIDNumber),Chrome 66.0.3359.181,,2018-08-03 16:27:16,2018-08-03 16:27:16,0.002s,PASSED
Statement - If (gridDIDNumber.equals(FromNumberGreter1)),Chrome 66.0.3359.181,,2018-08-03 16:27:16,2018-08-03 16:27:16,0.004s,PASSED
,,,,,,
Test Cases/7_Create_Individual_DID_Bundle,Chrome 66.0.3359.181,,2018-08-03 16:27:16,2018-08-03 16:27:21,4.202s,FAILED
click,Chrome 66.0.3359.181,,2018-08-03 16:27:17,2018-08-03 16:27:17,0.244s,PASSED
"Statement - returnString = com.kms.katalon.core.webui.keyword.WebUiBuiltInKeywords.callTestCase(""Test Cases/6_DID_TollFree_Range"")",Chrome 66.0.3359.181,,2018-08-03 16:27:17,2018-08-03 16:27:17,0.004s,NOT_RUN
delay,Chrome 66.0.3359.181,,2018-08-03 16:27:17,2018-08-03 16:27:20,3.003s,PASSED
click,Chrome 66.0.3359.181,,2018-08-03 16:27:20,2018-08-03 16:27:21,0.528s,FAILED
,,,,,,
Test Cases/99_Logout,Chrome 66.0.3359.181,,2018-08-03 16:27:21,2018-08-03 16:27:33,12.421s,PASSED
delay,Chrome 66.0.3359.181,,2018-08-03 16:27:21,2018-08-03 16:27:26,5.002s,PASSED
click,Chrome 66.0.3359.181,,2018-08-03 16:27:26,2018-08-03 16:27:26,0.234s,PASSED
delay,Chrome 66.0.3359.181,,2018-08-03 16:27:26,2018-08-03 16:27:31,5.004s,PASSED
click,Chrome 66.0.3359.181,,2018-08-03 16:27:31,2018-08-03 16:27:33,1.934s,PASSED
