Suite/Test/Step Name,Browser,Description,Start time,End time,Duration,Status
ServicePackage_Tenant_DID,Chrome 66.0.3359.181,,2018-08-03 15:36:13,2018-08-03 15:37:13,1m - 0.138s,FAILED
,,,,,,
Test Cases/0_Login,Chrome 66.0.3359.181,,2018-08-03 15:36:14,2018-08-03 15:36:40,26.325s,PASSED
openBrowser,Chrome 66.0.3359.181,,2018-08-03 15:36:14,2018-08-03 15:36:19,4.875s,PASSED
navigateToUrl,Chrome 66.0.3359.181,,2018-08-03 15:36:19,2018-08-03 15:36:32,13.064s,PASSED
maximizeWindow,Chrome 66.0.3359.181,,2018-08-03 15:36:32,2018-08-03 15:36:34,1.234s,PASSED
"Statement - Expectedpage = ""Dashboard""",Chrome 66.0.3359.181,,2018-08-03 15:36:34,2018-08-03 15:36:34,0.003s,PASSED
setText,Chrome 66.0.3359.181,,2018-08-03 15:36:34,2018-08-03 15:36:34,0.643s,PASSED
setText,Chrome 66.0.3359.181,,2018-08-03 15:36:34,2018-08-03 15:36:35,0.472s,PASSED
click,Chrome 66.0.3359.181,,2018-08-03 15:36:35,2018-08-03 15:36:35,0.244s,PASSED
delay,Chrome 66.0.3359.181,,2018-08-03 15:36:35,2018-08-03 15:36:40,5.054s,PASSED
,,,,,,
Test Cases/1_TestCases_ServicePackage,Chrome 66.0.3359.181,,2018-08-03 15:36:40,2018-08-03 15:37:00,19.752s,FAILED
click,Chrome 66.0.3359.181,,2018-08-03 15:36:41,2018-08-03 15:36:44,3.142s,PASSED
click,Chrome 66.0.3359.181,,2018-08-03 15:36:44,2018-08-03 15:36:46,2.491s,PASSED
click,Chrome 66.0.3359.181,,2018-08-03 15:36:46,2018-08-03 15:36:47,0.237s,PASSED
click,Chrome 66.0.3359.181,,2018-08-03 15:36:47,2018-08-03 15:36:49,2.320s,PASSED
click,Chrome 66.0.3359.181,,2018-08-03 15:36:49,2018-08-03 15:36:49,0.362s,PASSED
"Statement - chars = ""abcdefghijklmnopqrstuvwxyz0123456789""",Chrome 66.0.3359.181,,2018-08-03 15:36:49,2018-08-03 15:36:49,0.001s,PASSED
"Statement - ServicePackageName = """"",Chrome 66.0.3359.181,,2018-08-03 15:36:49,2018-08-03 15:36:49,0.003s,PASSED
"Statement - ServicePackageName = Script1532344828195.randomString((AUTOMATION + chars), 5)",Chrome 66.0.3359.181,,2018-08-03 15:36:49,2018-08-03 15:36:49,0.004s,PASSED
Statement - rand = new java.util.Random(),Chrome 66.0.3359.181,,2018-08-03 15:36:49,2018-08-03 15:36:49,0.009s,PASSED
Statement - sb = new java.lang.StringBuilder(),Chrome 66.0.3359.181,,2018-08-03 15:36:49,2018-08-03 15:36:49,0.035s,PASSED
"Statement - For ([i = 0, i < length, (i++)])",Chrome 66.0.3359.181,,2018-08-03 15:36:49,2018-08-03 15:36:49,0.055s,PASSED
Statement - return sb.toString(),Chrome 66.0.3359.181,,2018-08-03 15:36:49,2018-08-03 15:36:49,0.003s,PASSED
Statement - ServicePackage = ServicePackageName,Chrome 66.0.3359.181,,2018-08-03 15:36:49,2018-08-03 15:36:49,0.002s,PASSED
setText,Chrome 66.0.3359.181,,2018-08-03 15:36:49,2018-08-03 15:36:53,3.259s,PASSED
click,Chrome 66.0.3359.181,,2018-08-03 15:36:53,2018-08-03 15:36:53,0.288s,PASSED
click,Chrome 66.0.3359.181,,2018-08-03 15:36:53,2018-08-03 15:36:53,0.446s,PASSED
doubleClick,Chrome 66.0.3359.181,,2018-08-03 15:36:53,2018-08-03 15:36:54,0.265s,PASSED
delay,Chrome 66.0.3359.181,,2018-08-03 15:36:54,2018-08-03 15:36:59,5.005s,PASSED
click,Chrome 66.0.3359.181,,2018-08-03 15:36:59,2018-08-03 15:36:59,0.250s,PASSED
doubleClick,Chrome 66.0.3359.181,,2018-08-03 15:36:59,2018-08-03 15:36:59,0.216s,PASSED
setText,Chrome 66.0.3359.181,,2018-08-03 15:36:59,2018-08-03 15:37:00,0.543s,FAILED
,,,,,,
Test Cases/99_Logout,Chrome 66.0.3359.181,,2018-08-03 15:37:00,2018-08-03 15:37:12,12.545s,PASSED
delay,Chrome 66.0.3359.181,,2018-08-03 15:37:00,2018-08-03 15:37:05,5.002s,PASSED
click,Chrome 66.0.3359.181,,2018-08-03 15:37:05,2018-08-03 15:37:05,0.228s,PASSED
delay,Chrome 66.0.3359.181,,2018-08-03 15:37:05,2018-08-03 15:37:10,5.004s,PASSED
click,Chrome 66.0.3359.181,,2018-08-03 15:37:10,2018-08-03 15:37:12,1.984s,PASSED
