Suite/Test/Step Name,Browser,Description,Start time,End time,Duration,Status
ServicePackage_Tenant_DID,Chrome 66.0.3359.181,,2018-08-14 17:17:33,2018-08-14 17:20:51,3m - 17.973s,PASSED
,,,,,,
Test Cases/13_AudioLibrary,Chrome 66.0.3359.181,,2018-08-14 17:17:34,2018-08-14 17:19:51,2m - 17.321s,PASSED
delay,Chrome 66.0.3359.181,,2018-08-14 17:17:34,2018-08-14 17:17:34,0.002s,NOT_RUN
openBrowser,Chrome 66.0.3359.181,,2018-08-14 17:17:34,2018-08-14 17:17:39,4.084s,PASSED
navigateToUrl,Chrome 66.0.3359.181,,2018-08-14 17:17:39,2018-08-14 17:17:49,10.520s,PASSED
maximizeWindow,Chrome 66.0.3359.181,,2018-08-14 17:17:49,2018-08-14 17:17:50,1.218s,PASSED
delay,Chrome 66.0.3359.181,,2018-08-14 17:17:50,2018-08-14 17:17:52,2.026s,PASSED
closeWindowIndex,Chrome 66.0.3359.181,,2018-08-14 17:17:52,2018-08-14 17:17:52,0.187s,PASSED
delay,Chrome 66.0.3359.181,,2018-08-14 17:17:52,2018-08-14 17:17:54,2.003s,PASSED
switchToWindowTitle,Chrome 66.0.3359.181,,2018-08-14 17:17:54,2018-08-14 17:17:55,0.032s,PASSED
"Statement - Expectedpage = ""Dashboard""",Chrome 66.0.3359.181,,2018-08-14 17:17:55,2018-08-14 17:17:55,0.001s,PASSED
setText,Chrome 66.0.3359.181,,2018-08-14 17:17:55,2018-08-14 17:17:55,0.460s,PASSED
setText,Chrome 66.0.3359.181,,2018-08-14 17:17:55,2018-08-14 17:17:56,0.771s,PASSED
click,Chrome 66.0.3359.181,,2018-08-14 17:17:56,2018-08-14 17:17:56,0.123s,PASSED
delay,Chrome 66.0.3359.181,,2018-08-14 17:17:56,2018-08-14 17:18:01,5.002s,PASSED
click,Chrome 66.0.3359.181,,2018-08-14 17:18:01,2018-08-14 17:18:09,7.795s,PASSED
click,Chrome 66.0.3359.181,,2018-08-14 17:18:09,2018-08-14 17:18:09,0.439s,PASSED
delay,Chrome 66.0.3359.181,,2018-08-14 17:18:09,2018-08-14 17:18:12,3.002s,PASSED
setText,Chrome 66.0.3359.181,,2018-08-14 17:18:12,2018-08-14 17:18:13,0.681s,PASSED
click,Chrome 66.0.3359.181,,2018-08-14 17:18:13,2018-08-14 17:18:13,0.199s,PASSED
delay,Chrome 66.0.3359.181,,2018-08-14 17:18:13,2018-08-14 17:18:18,5.003s,PASSED
click,Chrome 66.0.3359.181,,2018-08-14 17:18:18,2018-08-14 17:18:18,0.418s,PASSED
delay,Chrome 66.0.3359.181,,2018-08-14 17:18:18,2018-08-14 17:18:21,3.003s,PASSED
switchToWindowTitle,Chrome 66.0.3359.181,,2018-08-14 17:18:21,2018-08-14 17:18:32,11.054s,PASSED
delay,Chrome 66.0.3359.181,,2018-08-14 17:18:32,2018-08-14 17:18:37,5.002s,PASSED
click,Chrome 66.0.3359.181,,2018-08-14 17:18:37,2018-08-14 17:18:38,0.306s,PASSED
click,Chrome 66.0.3359.181,,2018-08-14 17:18:38,2018-08-14 17:18:45,7.378s,PASSED
click,Chrome 66.0.3359.181,,2018-08-14 17:18:45,2018-08-14 17:18:46,0.541s,PASSED
setText,Chrome 66.0.3359.181,,2018-08-14 17:18:46,2018-08-14 17:18:46,0.523s,PASSED
click,Chrome 66.0.3359.181,,2018-08-14 17:18:46,2018-08-14 17:18:47,0.336s,PASSED
delay,Chrome 66.0.3359.181,,2018-08-14 17:18:47,2018-08-14 17:18:52,5.001s,PASSED
click,Chrome 66.0.3359.181,,2018-08-14 17:18:52,2018-08-14 17:18:52,0.352s,PASSED
delay,Chrome 66.0.3359.181,,2018-08-14 17:18:52,2018-08-14 17:18:55,3.001s,PASSED
setText,Chrome 66.0.3359.181,,2018-08-14 17:18:55,2018-08-14 17:18:56,1.123s,PASSED
click,Chrome 66.0.3359.181,,2018-08-14 17:18:56,2018-08-14 17:18:59,2.900s,PASSED
"Statement - chars = ""abcdefghijklmnopqrstuvwxyz123456789""",Chrome 66.0.3359.181,,2018-08-14 17:18:59,2018-08-14 17:18:59,0.001s,PASSED
click,Chrome 66.0.3359.181,,2018-08-14 17:18:59,2018-08-14 17:18:59,0.455s,PASSED
"Statement - AudioLibraryName1 = """"",Chrome 66.0.3359.181,,2018-08-14 17:18:59,2018-08-14 17:18:59,0.001s,PASSED
"Statement - AudioLibraryName1 = Script1533548849602.randomString((AUTOMATION + chars), 5)",Chrome 66.0.3359.181,,2018-08-14 17:18:59,2018-08-14 17:18:59,0.002s,PASSED
Statement - rand = new java.util.Random(),Chrome 66.0.3359.181,,2018-08-14 17:18:59,2018-08-14 17:18:59,0.005s,PASSED
Statement - sb = new java.lang.StringBuilder(),Chrome 66.0.3359.181,,2018-08-14 17:18:59,2018-08-14 17:18:59,0.011s,PASSED
"Statement - For ([i = 0, i < length, (i++)])",Chrome 66.0.3359.181,,2018-08-14 17:18:59,2018-08-14 17:18:59,0.010s,PASSED
Statement - return sb.toString(),Chrome 66.0.3359.181,,2018-08-14 17:18:59,2018-08-14 17:18:59,0.001s,PASSED
Statement - AudioFile1 = AudioLibraryName1,Chrome 66.0.3359.181,,2018-08-14 17:18:59,2018-08-14 17:18:59,0.001s,PASSED
setText,Chrome 66.0.3359.181,,2018-08-14 17:18:59,2018-08-14 17:19:03,3.504s,PASSED
selectOptionByValue,Chrome 66.0.3359.181,,2018-08-14 17:19:03,2018-08-14 17:19:03,0.483s,PASSED
delay,Chrome 66.0.3359.181,,2018-08-14 17:19:03,2018-08-14 17:19:06,3.002s,PASSED
uploadFile,Chrome 66.0.3359.181,,2018-08-14 17:19:06,2018-08-14 17:19:07,0.331s,PASSED
click,Chrome 66.0.3359.181,,2018-08-14 17:19:07,2018-08-14 17:19:07,0.217s,PASSED
click,Chrome 66.0.3359.181,,2018-08-14 17:19:07,2018-08-14 17:19:12,4.906s,PASSED
"Statement - AudioLibraryName2 = """"",Chrome 66.0.3359.181,,2018-08-14 17:19:12,2018-08-14 17:19:12,0.000s,PASSED
"Statement - AudioLibraryName2 = Script1533548849602.randomString((AUTOMATION + chars), 5)",Chrome 66.0.3359.181,,2018-08-14 17:19:12,2018-08-14 17:19:12,0.000s,PASSED
Statement - rand = new java.util.Random(),Chrome 66.0.3359.181,,2018-08-14 17:19:12,2018-08-14 17:19:12,0.000s,PASSED
Statement - sb = new java.lang.StringBuilder(),Chrome 66.0.3359.181,,2018-08-14 17:19:12,2018-08-14 17:19:12,0.000s,PASSED
"Statement - For ([i = 0, i < length, (i++)])",Chrome 66.0.3359.181,,2018-08-14 17:19:12,2018-08-14 17:19:12,0.006s,PASSED
Statement - return sb.toString(),Chrome 66.0.3359.181,,2018-08-14 17:19:12,2018-08-14 17:19:12,0.001s,PASSED
Statement - AudioFile2 = AudioLibraryName2,Chrome 66.0.3359.181,,2018-08-14 17:19:12,2018-08-14 17:19:12,0.001s,PASSED
setText,Chrome 66.0.3359.181,,2018-08-14 17:19:12,2018-08-14 17:19:15,2.820s,PASSED
selectOptionByValue,Chrome 66.0.3359.181,,2018-08-14 17:19:15,2018-08-14 17:19:15,0.467s,PASSED
delay,Chrome 66.0.3359.181,,2018-08-14 17:19:15,2018-08-14 17:19:18,3.002s,PASSED
uploadFile,Chrome 66.0.3359.181,,2018-08-14 17:19:18,2018-08-14 17:19:18,0.154s,PASSED
click,Chrome 66.0.3359.181,,2018-08-14 17:19:18,2018-08-14 17:19:19,0.341s,PASSED
click,Chrome 66.0.3359.181,,2018-08-14 17:19:19,2018-08-14 17:19:23,4.694s,PASSED
setText,Chrome 66.0.3359.181,,2018-08-14 17:19:23,2018-08-14 17:19:24,0.683s,PASSED
click,Chrome 66.0.3359.181,,2018-08-14 17:19:24,2018-08-14 17:19:24,0.119s,PASSED
delay,Chrome 66.0.3359.181,,2018-08-14 17:19:24,2018-08-14 17:19:27,3.001s,PASSED
Statement - audioName = com.kms.katalon.core.webui.keyword.WebUiBuiltInKeywords.getText(com.kms.katalon.core.testobject.ObjectRepository.findTestObject(Object Repository/Page_Audio Library/td_TestAudio.mp3)),Chrome 66.0.3359.181,,2018-08-14 17:19:27,2018-08-14 17:19:27,0.059s,PASSED
Statement - println(audioName),Chrome 66.0.3359.181,,2018-08-14 17:19:27,2018-08-14 17:19:27,0.003s,PASSED
Statement - println(AudioLibraryName1),Chrome 66.0.3359.181,,2018-08-14 17:19:27,2018-08-14 17:19:27,0.001s,PASSED
Statement - If (audioName.contains(AudioLibraryName1)),Chrome 66.0.3359.181,,2018-08-14 17:19:27,2018-08-14 17:19:27,0.010s,PASSED
delay,Chrome 66.0.3359.181,,2018-08-14 17:19:27,2018-08-14 17:19:29,2.011s,PASSED
click,Chrome 66.0.3359.181,,2018-08-14 17:19:29,2018-08-14 17:19:31,1.989s,PASSED
delay,Chrome 66.0.3359.181,,2018-08-14 17:19:31,2018-08-14 17:19:33,2.002s,PASSED
click,Chrome 66.0.3359.181,,2018-08-14 17:19:33,2018-08-14 17:19:35,1.996s,PASSED
delay,Chrome 66.0.3359.181,,2018-08-14 17:19:35,2018-08-14 17:19:37,2.002s,PASSED
sendKeys,Chrome 66.0.3359.181,,2018-08-14 17:19:37,2018-08-14 17:19:37,0.234s,PASSED
click,Chrome 66.0.3359.181,,2018-08-14 17:19:37,2018-08-14 17:19:38,0.255s,PASSED
delay,Chrome 66.0.3359.181,,2018-08-14 17:19:38,2018-08-14 17:19:40,2.002s,PASSED
setText,Chrome 66.0.3359.181,,2018-08-14 17:19:40,2018-08-14 17:19:41,0.955s,PASSED
delay,Chrome 66.0.3359.181,,2018-08-14 17:19:41,2018-08-14 17:19:43,2.001s,PASSED
click,Chrome 66.0.3359.181,,2018-08-14 17:19:43,2018-08-14 17:19:45,1.958s,PASSED
delay,Chrome 66.0.3359.181,,2018-08-14 17:19:45,2018-08-14 17:19:47,2.003s,PASSED
click,Chrome 66.0.3359.181,,2018-08-14 17:19:47,2018-08-14 17:19:47,0.302s,PASSED
setText,Chrome 66.0.3359.181,,2018-08-14 17:19:47,2018-08-14 17:19:48,0.709s,PASSED
click,Chrome 66.0.3359.181,,2018-08-14 17:19:48,2018-08-14 17:19:48,0.278s,PASSED
delay,Chrome 66.0.3359.181,,2018-08-14 17:19:48,2018-08-14 17:19:51,3.002s,PASSED
"Statement - enabledisablevalue = com.kms.katalon.core.webui.keyword.WebUiBuiltInKeywords.getAttribute(com.kms.katalon.core.testobject.ObjectRepository.findTestObject(Object Repository/Page_Audio Library/i_fa fa-trash), ""class"")",Chrome 66.0.3359.181,,2018-08-14 17:19:51,2018-08-14 17:19:51,0.071s,PASSED
"Statement - If (enabledisablevalue.contains(""disabled""))",Chrome 66.0.3359.181,,2018-08-14 17:19:51,2018-08-14 17:19:51,0.003s,PASSED
,,,,,,
Test Cases/14_AudioPhrase,Chrome 66.0.3359.181,,2018-08-14 17:19:51,2018-08-14 17:20:33,41.989s,PASSED
delay,Chrome 66.0.3359.181,,2018-08-14 17:19:51,2018-08-14 17:19:54,3.012s,PASSED
switchToWindowTitle,Chrome 66.0.3359.181,,2018-08-14 17:19:54,2018-08-14 17:19:54,0.001s,NOT_RUN
setText,Chrome 66.0.3359.181,,2018-08-14 17:19:54,2018-08-14 17:19:55,1.085s,PASSED
click,Chrome 66.0.3359.181,,2018-08-14 17:19:55,2018-08-14 17:19:57,1.904s,PASSED
click,Chrome 66.0.3359.181,,2018-08-14 17:19:57,2018-08-14 17:19:58,0.347s,PASSED
"Statement - AudioPhraseName = """"",Chrome 66.0.3359.181,,2018-08-14 17:19:58,2018-08-14 17:19:58,0.001s,PASSED
"Statement - chars = ""abcdefghijklmnopqrstuvwxyz123456789""",Chrome 66.0.3359.181,,2018-08-14 17:19:58,2018-08-14 17:19:58,0.000s,PASSED
"Statement - AudioPhraseName = Script1533625158161.randomString((AUTOMATION + chars), 5)",Chrome 66.0.3359.181,,2018-08-14 17:19:58,2018-08-14 17:19:58,0.001s,PASSED
Statement - rand = new java.util.Random(),Chrome 66.0.3359.181,,2018-08-14 17:19:58,2018-08-14 17:19:58,0.000s,PASSED
Statement - sb = new java.lang.StringBuilder(),Chrome 66.0.3359.181,,2018-08-14 17:19:58,2018-08-14 17:19:58,0.000s,PASSED
"Statement - For ([i = 0, i < length, (i++)])",Chrome 66.0.3359.181,,2018-08-14 17:19:58,2018-08-14 17:19:58,0.003s,PASSED
Statement - return sb.toString(),Chrome 66.0.3359.181,,2018-08-14 17:19:58,2018-08-14 17:19:58,0.000s,PASSED
Statement - AudioPhrase = AudioPhraseName,Chrome 66.0.3359.181,,2018-08-14 17:19:58,2018-08-14 17:19:58,0.000s,PASSED
setText,Chrome 66.0.3359.181,,2018-08-14 17:19:58,2018-08-14 17:20:00,2.457s,PASSED
click,Chrome 66.0.3359.181,,2018-08-14 17:20:00,2018-08-14 17:20:00,0.289s,PASSED
click,Chrome 66.0.3359.181,,2018-08-14 17:20:00,2018-08-14 17:20:03,2.674s,PASSED
setText,Chrome 66.0.3359.181,,2018-08-14 17:20:03,2018-08-14 17:20:04,0.569s,PASSED
click,Chrome 66.0.3359.181,,2018-08-14 17:20:04,2018-08-14 17:20:04,0.384s,PASSED
click,Chrome 66.0.3359.181,,2018-08-14 17:20:04,2018-08-14 17:20:06,2.011s,PASSED
delay,Chrome 66.0.3359.181,,2018-08-14 17:20:06,2018-08-14 17:20:08,2.003s,PASSED
click,Chrome 66.0.3359.181,,2018-08-14 17:20:08,2018-08-14 17:20:08,0.192s,PASSED
delay,Chrome 66.0.3359.181,,2018-08-14 17:20:08,2018-08-14 17:20:10,2.001s,PASSED
sendKeys,Chrome 66.0.3359.181,,2018-08-14 17:20:10,2018-08-14 17:20:10,0.186s,PASSED
setText,Chrome 66.0.3359.181,,2018-08-14 17:20:10,2018-08-14 17:20:11,0.340s,PASSED
click,Chrome 66.0.3359.181,,2018-08-14 17:20:11,2018-08-14 17:20:11,0.001s,NOT_RUN
click,Chrome 66.0.3359.181,,2018-08-14 17:20:11,2018-08-14 17:20:11,0.303s,PASSED
delay,Chrome 66.0.3359.181,,2018-08-14 17:20:11,2018-08-14 17:20:13,2.002s,PASSED
sendKeys,Chrome 66.0.3359.181,,2018-08-14 17:20:13,2018-08-14 17:20:14,0.583s,PASSED
setText,Chrome 66.0.3359.181,,2018-08-14 17:20:14,2018-08-14 17:20:14,0.136s,PASSED
click,Chrome 66.0.3359.181,,2018-08-14 17:20:14,2018-08-14 17:20:14,0.001s,NOT_RUN
click,Chrome 66.0.3359.181,,2018-08-14 17:20:14,2018-08-14 17:20:14,0.260s,PASSED
delay,Chrome 66.0.3359.181,,2018-08-14 17:20:14,2018-08-14 17:20:16,2.002s,PASSED
click,Chrome 66.0.3359.181,,2018-08-14 17:20:16,2018-08-14 17:20:18,2.158s,PASSED
delay,Chrome 66.0.3359.181,,2018-08-14 17:20:18,2018-08-14 17:20:20,2.001s,PASSED
click,Chrome 66.0.3359.181,,2018-08-14 17:20:20,2018-08-14 17:20:23,2.276s,PASSED
delay,Chrome 66.0.3359.181,,2018-08-14 17:20:23,2018-08-14 17:20:25,2.003s,PASSED
sendKeys,Chrome 66.0.3359.181,,2018-08-14 17:20:25,2018-08-14 17:20:25,0.096s,PASSED
delay,Chrome 66.0.3359.181,,2018-08-14 17:20:25,2018-08-14 17:20:27,2.002s,PASSED
click,Chrome 66.0.3359.181,,2018-08-14 17:20:27,2018-08-14 17:20:27,0.297s,PASSED
delay,Chrome 66.0.3359.181,,2018-08-14 17:20:27,2018-08-14 17:20:29,2.004s,PASSED
setText,Chrome 66.0.3359.181,,2018-08-14 17:20:29,2018-08-14 17:20:30,1.032s,PASSED
click,Chrome 66.0.3359.181,,2018-08-14 17:20:30,2018-08-14 17:20:32,1.798s,PASSED
click,Chrome 66.0.3359.181,,2018-08-14 17:20:32,2018-08-14 17:20:32,0.248s,PASSED
setText,Chrome 66.0.3359.181,,2018-08-14 17:20:32,2018-08-14 17:20:33,0.784s,PASSED
click,Chrome 66.0.3359.181,,2018-08-14 17:20:33,2018-08-14 17:20:33,0.159s,PASSED
"Statement - enabledisablevalue = com.kms.katalon.core.webui.keyword.WebUiBuiltInKeywords.getAttribute(com.kms.katalon.core.testobject.ObjectRepository.findTestObject(Object Repository/Page_Audio Phrase/a_btn btn-danger btn-sm), ""class"")",Chrome 66.0.3359.181,,2018-08-14 17:20:33,2018-08-14 17:20:33,0.043s,PASSED
"Statement - If (enabledisablevalue.contains(""disabled""))",Chrome 66.0.3359.181,,2018-08-14 17:20:33,2018-08-14 17:20:33,0.002s,PASSED
,,,,,,
Test Cases/99_Logout,Chrome 66.0.3359.181,,2018-08-14 17:20:33,2018-08-14 17:20:50,16.906s,PASSED
delay,Chrome 66.0.3359.181,,2018-08-14 17:20:33,2018-08-14 17:20:38,5.006s,PASSED
click,Chrome 66.0.3359.181,,2018-08-14 17:20:38,2018-08-14 17:20:39,0.354s,PASSED
delay,Chrome 66.0.3359.181,,2018-08-14 17:20:39,2018-08-14 17:20:44,5.001s,PASSED
click,Chrome 66.0.3359.181,,2018-08-14 17:20:44,2018-08-14 17:20:50,6.232s,PASSED
