Suite/Test/Step Name,Browser,Description,Start time,End time,Duration,Status
ServicePackage_Tenant_DID,Chrome 66.0.3359.181,,2018-08-03 15:20:49,2018-08-03 15:22:23,1m - 34.159s,FAILED
,,,,,,
Test Cases/0_Login,Chrome 66.0.3359.181,,2018-08-03 15:20:49,2018-08-03 15:21:17,28.221s,PASSED
openBrowser,Chrome 66.0.3359.181,,2018-08-03 15:20:50,2018-08-03 15:20:55,4.925s,PASSED
navigateToUrl,Chrome 66.0.3359.181,,2018-08-03 15:20:55,2018-08-03 15:21:10,15.036s,PASSED
maximizeWindow,Chrome 66.0.3359.181,,2018-08-03 15:21:10,2018-08-03 15:21:11,1.214s,PASSED
"Statement - Expectedpage = ""Dashboard""",Chrome 66.0.3359.181,,2018-08-03 15:21:11,2018-08-03 15:21:11,0.002s,PASSED
setText,Chrome 66.0.3359.181,,2018-08-03 15:21:11,2018-08-03 15:21:12,0.551s,PASSED
setText,Chrome 66.0.3359.181,,2018-08-03 15:21:12,2018-08-03 15:21:12,0.428s,PASSED
click,Chrome 66.0.3359.181,,2018-08-03 15:21:12,2018-08-03 15:21:12,0.265s,PASSED
delay,Chrome 66.0.3359.181,,2018-08-03 15:21:12,2018-08-03 15:21:17,5.054s,PASSED
,,,,,,
Test Cases/1_TestCases_ServicePackage,Chrome 66.0.3359.181,,2018-08-03 15:21:17,2018-08-03 15:22:09,51.475s,FAILED
click,Chrome 66.0.3359.181,,2018-08-03 15:21:18,2018-08-03 15:21:25,6.651s,PASSED
click,Chrome 66.0.3359.181,,2018-08-03 15:21:25,2018-08-03 15:21:28,3.254s,PASSED
click,Chrome 66.0.3359.181,,2018-08-03 15:21:28,2018-08-03 15:21:28,0.256s,PASSED
click,Chrome 66.0.3359.181,,2018-08-03 15:21:28,2018-08-03 15:21:31,2.988s,PASSED
click,Chrome 66.0.3359.181,,2018-08-03 15:21:31,2018-08-03 15:21:32,0.391s,PASSED
"Statement - chars = ""abcdefghijklmnopqrstuvwxyz0123456789""",Chrome 66.0.3359.181,,2018-08-03 15:21:32,2018-08-03 15:21:32,0.002s,PASSED
"Statement - ServicePackageName = """"",Chrome 66.0.3359.181,,2018-08-03 15:21:32,2018-08-03 15:21:32,0.002s,PASSED
"Statement - ServicePackageName = Script1532344828195.randomString((AUTOMATION + chars), 5)",Chrome 66.0.3359.181,,2018-08-03 15:21:32,2018-08-03 15:21:32,0.006s,PASSED
Statement - rand = new java.util.Random(),Chrome 66.0.3359.181,,2018-08-03 15:21:32,2018-08-03 15:21:32,0.011s,PASSED
Statement - sb = new java.lang.StringBuilder(),Chrome 66.0.3359.181,,2018-08-03 15:21:32,2018-08-03 15:21:32,0.032s,PASSED
"Statement - For ([i = 0, i < length, (i++)])",Chrome 66.0.3359.181,,2018-08-03 15:21:32,2018-08-03 15:21:32,0.029s,PASSED
Statement - return sb.toString(),Chrome 66.0.3359.181,,2018-08-03 15:21:32,2018-08-03 15:21:32,0.002s,PASSED
Statement - ServicePackage = ServicePackageName,Chrome 66.0.3359.181,,2018-08-03 15:21:32,2018-08-03 15:21:32,0.004s,PASSED
setText,Chrome 66.0.3359.181,,2018-08-03 15:21:32,2018-08-03 15:21:36,4.433s,PASSED
click,Chrome 66.0.3359.181,,2018-08-03 15:21:36,2018-08-03 15:21:37,0.259s,PASSED
click,Chrome 66.0.3359.181,,2018-08-03 15:21:37,2018-08-03 15:21:37,0.424s,PASSED
doubleClick,Chrome 66.0.3359.181,,2018-08-03 15:21:37,2018-08-03 15:22:09,31.869s,FAILED
,,,,,,
Test Cases/99_Logout,Chrome 66.0.3359.181,,2018-08-03 15:22:09,2018-08-03 15:22:22,12.922s,PASSED
delay,Chrome 66.0.3359.181,,2018-08-03 15:22:09,2018-08-03 15:22:15,5.062s,PASSED
click,Chrome 66.0.3359.181,,2018-08-03 15:22:15,2018-08-03 15:22:15,0.278s,PASSED
delay,Chrome 66.0.3359.181,,2018-08-03 15:22:15,2018-08-03 15:22:20,5.004s,PASSED
click,Chrome 66.0.3359.181,,2018-08-03 15:22:20,2018-08-03 15:22:22,2.058s,PASSED
