Suite/Test/Step Name,Browser,Description,Start time,End time,Duration,Status
ServicePackage_Tenant_DID,Chrome 66.0.3359.181,,2018-08-14 16:15:55,2018-08-14 16:19:21,3m - 25.533s,FAILED
,,,,,,
Test Cases/13_AudioLibrary,Chrome 66.0.3359.181,,2018-08-14 16:15:56,2018-08-14 16:18:18,2m - 21.725s,FAILED
delay,Chrome 66.0.3359.181,,2018-08-14 16:15:57,2018-08-14 16:15:57,0.003s,NOT_RUN
openBrowser,Chrome 66.0.3359.181,,2018-08-14 16:15:57,2018-08-14 16:16:01,3.890s,PASSED
navigateToUrl,Chrome 66.0.3359.181,,2018-08-14 16:16:01,2018-08-14 16:16:12,11.139s,PASSED
maximizeWindow,Chrome 66.0.3359.181,,2018-08-14 16:16:12,2018-08-14 16:16:13,1.146s,PASSED
delay,Chrome 66.0.3359.181,,2018-08-14 16:16:13,2018-08-14 16:16:15,2.026s,PASSED
closeWindowIndex,Chrome 66.0.3359.181,,2018-08-14 16:16:15,2018-08-14 16:16:15,0.141s,PASSED
delay,Chrome 66.0.3359.181,,2018-08-14 16:16:15,2018-08-14 16:16:17,2.002s,PASSED
switchToWindowTitle,Chrome 66.0.3359.181,,2018-08-14 16:16:17,2018-08-14 16:16:17,0.040s,PASSED
"Statement - Expectedpage = ""Dashboard""",Chrome 66.0.3359.181,,2018-08-14 16:16:17,2018-08-14 16:16:17,0.001s,PASSED
setText,Chrome 66.0.3359.181,,2018-08-14 16:16:17,2018-08-14 16:16:17,0.400s,PASSED
setText,Chrome 66.0.3359.181,,2018-08-14 16:16:17,2018-08-14 16:16:18,0.687s,PASSED
click,Chrome 66.0.3359.181,,2018-08-14 16:16:18,2018-08-14 16:16:18,0.237s,PASSED
delay,Chrome 66.0.3359.181,,2018-08-14 16:16:18,2018-08-14 16:16:23,5.002s,PASSED
click,Chrome 66.0.3359.181,,2018-08-14 16:16:23,2018-08-14 16:16:31,7.565s,PASSED
click,Chrome 66.0.3359.181,,2018-08-14 16:16:31,2018-08-14 16:16:31,0.533s,PASSED
delay,Chrome 66.0.3359.181,,2018-08-14 16:16:31,2018-08-14 16:16:34,3.002s,PASSED
setText,Chrome 66.0.3359.181,,2018-08-14 16:16:34,2018-08-14 16:16:35,0.637s,PASSED
click,Chrome 66.0.3359.181,,2018-08-14 16:16:35,2018-08-14 16:16:35,0.373s,PASSED
delay,Chrome 66.0.3359.181,,2018-08-14 16:16:35,2018-08-14 16:16:40,5.002s,PASSED
click,Chrome 66.0.3359.181,,2018-08-14 16:16:40,2018-08-14 16:16:41,0.153s,PASSED
delay,Chrome 66.0.3359.181,,2018-08-14 16:16:41,2018-08-14 16:16:44,3.003s,PASSED
switchToWindowTitle,Chrome 66.0.3359.181,,2018-08-14 16:16:44,2018-08-14 16:16:55,11.068s,PASSED
delay,Chrome 66.0.3359.181,,2018-08-14 16:16:55,2018-08-14 16:17:00,5.002s,PASSED
click,Chrome 66.0.3359.181,,2018-08-14 16:17:00,2018-08-14 16:17:00,0.306s,PASSED
click,Chrome 66.0.3359.181,,2018-08-14 16:17:00,2018-08-14 16:17:09,9.403s,PASSED
click,Chrome 66.0.3359.181,,2018-08-14 16:17:09,2018-08-14 16:17:10,0.338s,PASSED
setText,Chrome 66.0.3359.181,,2018-08-14 16:17:10,2018-08-14 16:17:11,0.796s,PASSED
click,Chrome 66.0.3359.181,,2018-08-14 16:17:11,2018-08-14 16:17:11,0.270s,PASSED
delay,Chrome 66.0.3359.181,,2018-08-14 16:17:11,2018-08-14 16:17:16,5.001s,PASSED
click,Chrome 66.0.3359.181,,2018-08-14 16:17:16,2018-08-14 16:17:16,0.416s,PASSED
delay,Chrome 66.0.3359.181,,2018-08-14 16:17:16,2018-08-14 16:17:19,3.002s,PASSED
setText,Chrome 66.0.3359.181,,2018-08-14 16:17:19,2018-08-14 16:17:21,1.466s,PASSED
click,Chrome 66.0.3359.181,,2018-08-14 16:17:21,2018-08-14 16:17:25,4.349s,PASSED
"Statement - chars = ""abcdefghijklmnopqrstuvwxyz123456789""",Chrome 66.0.3359.181,,2018-08-14 16:17:25,2018-08-14 16:17:25,0.001s,PASSED
click,Chrome 66.0.3359.181,,2018-08-14 16:17:25,2018-08-14 16:17:26,0.707s,PASSED
"Statement - AudioLibraryName1 = """"",Chrome 66.0.3359.181,,2018-08-14 16:17:26,2018-08-14 16:17:26,0.002s,PASSED
"Statement - AudioLibraryName1 = Script1533548849602.randomString((AUTOMATION + chars), 5)",Chrome 66.0.3359.181,,2018-08-14 16:17:26,2018-08-14 16:17:26,0.004s,PASSED
Statement - rand = new java.util.Random(),Chrome 66.0.3359.181,,2018-08-14 16:17:26,2018-08-14 16:17:26,0.011s,PASSED
Statement - sb = new java.lang.StringBuilder(),Chrome 66.0.3359.181,,2018-08-14 16:17:26,2018-08-14 16:17:26,0.021s,PASSED
"Statement - For ([i = 0, i < length, (i++)])",Chrome 66.0.3359.181,,2018-08-14 16:17:26,2018-08-14 16:17:26,0.015s,PASSED
Statement - return sb.toString(),Chrome 66.0.3359.181,,2018-08-14 16:17:26,2018-08-14 16:17:26,0.001s,PASSED
Statement - AudioFile1 = AudioLibraryName1,Chrome 66.0.3359.181,,2018-08-14 16:17:26,2018-08-14 16:17:26,0.001s,PASSED
setText,Chrome 66.0.3359.181,,2018-08-14 16:17:26,2018-08-14 16:17:30,3.746s,PASSED
selectOptionByValue,Chrome 66.0.3359.181,,2018-08-14 16:17:30,2018-08-14 16:17:30,0.205s,PASSED
delay,Chrome 66.0.3359.181,,2018-08-14 16:17:30,2018-08-14 16:17:33,3.003s,PASSED
uploadFile,Chrome 66.0.3359.181,,2018-08-14 16:17:33,2018-08-14 16:17:33,0.334s,PASSED
click,Chrome 66.0.3359.181,,2018-08-14 16:17:33,2018-08-14 16:17:33,0.237s,PASSED
click,Chrome 66.0.3359.181,,2018-08-14 16:17:33,2018-08-14 16:17:39,5.269s,PASSED
"Statement - AudioLibraryName2 = """"",Chrome 66.0.3359.181,,2018-08-14 16:17:39,2018-08-14 16:17:39,0.001s,PASSED
"Statement - AudioLibraryName2 = Script1533548849602.randomString((AUTOMATION + chars), 5)",Chrome 66.0.3359.181,,2018-08-14 16:17:39,2018-08-14 16:17:39,0.001s,PASSED
Statement - rand = new java.util.Random(),Chrome 66.0.3359.181,,2018-08-14 16:17:39,2018-08-14 16:17:39,0.000s,PASSED
Statement - sb = new java.lang.StringBuilder(),Chrome 66.0.3359.181,,2018-08-14 16:17:39,2018-08-14 16:17:39,0.000s,PASSED
"Statement - For ([i = 0, i < length, (i++)])",Chrome 66.0.3359.181,,2018-08-14 16:17:39,2018-08-14 16:17:39,0.006s,PASSED
Statement - return sb.toString(),Chrome 66.0.3359.181,,2018-08-14 16:17:39,2018-08-14 16:17:39,0.000s,PASSED
Statement - AudioFile2 = AudioLibraryName2,Chrome 66.0.3359.181,,2018-08-14 16:17:39,2018-08-14 16:17:39,0.000s,PASSED
setText,Chrome 66.0.3359.181,,2018-08-14 16:17:39,2018-08-14 16:17:42,3.076s,PASSED
selectOptionByValue,Chrome 66.0.3359.181,,2018-08-14 16:17:42,2018-08-14 16:17:42,0.431s,PASSED
delay,Chrome 66.0.3359.181,,2018-08-14 16:17:42,2018-08-14 16:17:45,3.001s,PASSED
uploadFile,Chrome 66.0.3359.181,,2018-08-14 16:17:45,2018-08-14 16:17:45,0.249s,PASSED
click,Chrome 66.0.3359.181,,2018-08-14 16:17:45,2018-08-14 16:17:46,0.112s,PASSED
click,Chrome 66.0.3359.181,,2018-08-14 16:17:46,2018-08-14 16:18:18,32.131s,FAILED
,,,,,,
Test Cases/14_AudioPhrase,Chrome 66.0.3359.181,,2018-08-14 16:18:18,2018-08-14 16:19:05,46.983s,FAILED
delay,Chrome 66.0.3359.181,,2018-08-14 16:18:18,2018-08-14 16:18:21,3.009s,PASSED
switchToWindowTitle,Chrome 66.0.3359.181,,2018-08-14 16:18:21,2018-08-14 16:18:21,0.001s,NOT_RUN
setText,Chrome 66.0.3359.181,,2018-08-14 16:18:21,2018-08-14 16:18:22,1.271s,PASSED
click,Chrome 66.0.3359.181,,2018-08-14 16:18:22,2018-08-14 16:18:24,1.792s,PASSED
click,Chrome 66.0.3359.181,,2018-08-14 16:18:24,2018-08-14 16:18:24,0.272s,PASSED
"Statement - AudioPhraseName = """"",Chrome 66.0.3359.181,,2018-08-14 16:18:24,2018-08-14 16:18:24,0.001s,PASSED
"Statement - chars = ""abcdefghijklmnopqrstuvwxyz123456789""",Chrome 66.0.3359.181,,2018-08-14 16:18:24,2018-08-14 16:18:24,0.001s,PASSED
"Statement - AudioPhraseName = Script1533625158161.randomString((AUTOMATION + chars), 5)",Chrome 66.0.3359.181,,2018-08-14 16:18:24,2018-08-14 16:18:24,0.003s,PASSED
Statement - rand = new java.util.Random(),Chrome 66.0.3359.181,,2018-08-14 16:18:24,2018-08-14 16:18:24,0.001s,PASSED
Statement - sb = new java.lang.StringBuilder(),Chrome 66.0.3359.181,,2018-08-14 16:18:24,2018-08-14 16:18:24,0.001s,PASSED
"Statement - For ([i = 0, i < length, (i++)])",Chrome 66.0.3359.181,,2018-08-14 16:18:24,2018-08-14 16:18:24,0.006s,PASSED
Statement - return sb.toString(),Chrome 66.0.3359.181,,2018-08-14 16:18:24,2018-08-14 16:18:24,0.000s,PASSED
Statement - AudioPhrase = AudioPhraseName,Chrome 66.0.3359.181,,2018-08-14 16:18:24,2018-08-14 16:18:24,0.001s,PASSED
setText,Chrome 66.0.3359.181,,2018-08-14 16:18:24,2018-08-14 16:18:27,2.412s,PASSED
click,Chrome 66.0.3359.181,,2018-08-14 16:18:27,2018-08-14 16:18:27,0.359s,PASSED
click,Chrome 66.0.3359.181,,2018-08-14 16:18:27,2018-08-14 16:18:30,2.826s,PASSED
setText,Chrome 66.0.3359.181,,2018-08-14 16:18:30,2018-08-14 16:18:30,0.515s,PASSED
click,Chrome 66.0.3359.181,,2018-08-14 16:18:30,2018-08-14 16:18:31,0.238s,PASSED
click,Chrome 66.0.3359.181,,2018-08-14 16:18:31,2018-08-14 16:18:33,2.003s,PASSED
click,Chrome 66.0.3359.181,,2018-08-14 16:18:33,2018-08-14 16:18:33,0.339s,PASSED
sendKeys,Chrome 66.0.3359.181,,2018-08-14 16:18:33,2018-08-14 16:19:05,31.631s,FAILED
,,,,,,
Test Cases/99_Logout,Chrome 66.0.3359.181,,2018-08-14 16:19:05,2018-08-14 16:19:20,15.340s,PASSED
delay,Chrome 66.0.3359.181,,2018-08-14 16:19:05,2018-08-14 16:19:10,5.028s,PASSED
click,Chrome 66.0.3359.181,,2018-08-14 16:19:10,2018-08-14 16:19:10,0.233s,PASSED
delay,Chrome 66.0.3359.181,,2018-08-14 16:19:10,2018-08-14 16:19:15,5.001s,PASSED
click,Chrome 66.0.3359.181,,2018-08-14 16:19:15,2018-08-14 16:19:20,4.815s,PASSED
